Library/Bee/artifacts/mvdfrm/Unity.2D.Sprite.Editor.ref.dll_6C8185F9E5AE014E.mvfrm
Library/Bee/artifacts/mvdfrm/Unity.AI.Navigation.Editor.ConversionSystem.ref.dll_9957BA1AF208A4B4.mvfrm
Library/Bee/artifacts/mvdfrm/Unity.AI.Navigation.Editor.ref.dll_61B1FDAFDA0EF665.mvfrm
Library/Bee/artifacts/mvdfrm/Unity.AI.Navigation.Updater.ref.dll_EBACA68F09445567.mvfrm
Library/Bee/artifacts/mvdfrm/Unity.AI.Navigation.ref.dll_B8DD527C37A2B60C.mvfrm
Library/Bee/artifacts/mvdfrm/Unity.Burst.Editor.ref.dll_222C82CECB47A66F.mvfrm
Library/Bee/artifacts/mvdfrm/Unity.Burst.ref.dll_3835BB91EC2C0D62.mvfrm
Library/Bee/artifacts/mvdfrm/Unity.EditorCoroutines.Editor.ref.dll_1315E0A407C70415.mvfrm
Library/Bee/artifacts/mvdfrm/Unity.Mathematics.Editor.ref.dll_553CFFCCE7430329.mvfrm
Library/Bee/artifacts/mvdfrm/Unity.Mathematics.ref.dll_66DE4C1C9A03AD08.mvfrm
Library/Bee/artifacts/mvdfrm/Unity.Performance.Profile-Analyzer.Editor.ref.dll_8B44F821019897E5.mvfrm
Library/Bee/artifacts/mvdfrm/Unity.PlasticSCM.Editor.ref.dll_A558B9E65539D7D0.mvfrm
Library/Bee/artifacts/mvdfrm/Unity.RenderPipeline.Universal.ShaderLibrary.ref.dll_D7DD283915E480F1.mvfrm
Library/Bee/artifacts/mvdfrm/Unity.RenderPipelines.Core.Editor.ref.dll_AA6E4515E60A494B.mvfrm
Library/Bee/artifacts/mvdfrm/Unity.RenderPipelines.Core.Runtime.ref.dll_CA4A63933BEF3AB0.mvfrm
Library/Bee/artifacts/mvdfrm/Unity.RenderPipelines.Core.ShaderLibrary.ref.dll_38159DB35CC29EFE.mvfrm
Library/Bee/artifacts/mvdfrm/Unity.RenderPipelines.ShaderGraph.ShaderGraphLibrary.ref.dll_DF61AD73468C057E.mvfrm
Library/Bee/artifacts/mvdfrm/Unity.RenderPipelines.Universal.Editor.ref.dll_ECAA9E877BE61FD7.mvfrm
Library/Bee/artifacts/mvdfrm/Unity.RenderPipelines.Universal.Runtime.ref.dll_9692FC5A7F88C564.mvfrm
Library/Bee/artifacts/mvdfrm/Unity.RenderPipelines.Universal.Shaders.ref.dll_D6FB0BA3BDF7609A.mvfrm
Library/Bee/artifacts/mvdfrm/Unity.Rider.Editor.ref.dll_DA88E6A3E9EB6155.mvfrm
Library/Bee/artifacts/mvdfrm/Unity.Searcher.Editor.ref.dll_1D712DD21DFFF248.mvfrm
Library/Bee/artifacts/mvdfrm/Unity.ShaderGraph.Editor.ref.dll_CA6C4521A25CEDB6.mvfrm
Library/Bee/artifacts/mvdfrm/Unity.TestTools.CodeCoverage.Editor.OpenCover.Model.ref.dll_22F664961FC0158D.mvfrm
Library/Bee/artifacts/mvdfrm/Unity.TestTools.CodeCoverage.Editor.OpenCover.Mono.Reflection.ref.dll_39D3266F6029657A.mvfrm
Library/Bee/artifacts/mvdfrm/Unity.TestTools.CodeCoverage.Editor.ref.dll_C6D619E6129B87D3.mvfrm
Library/Bee/artifacts/mvdfrm/Unity.TextMeshPro.Editor.ref.dll_D0BA3615D322EF6C.mvfrm
Library/Bee/artifacts/mvdfrm/Unity.TextMeshPro.ref.dll_02929A3ECA791895.mvfrm
Library/Bee/artifacts/mvdfrm/Unity.Timeline.Editor.ref.dll_17F688653313AA4C.mvfrm
Library/Bee/artifacts/mvdfrm/Unity.Timeline.ref.dll_16F8EA6B67022FB5.mvfrm
Library/Bee/artifacts/mvdfrm/Unity.VSCode.Editor.ref.dll_AE868214B5ED3D13.mvfrm
Library/Bee/artifacts/mvdfrm/Unity.VisualEffectGraph.Editor.ref.dll_F78A7DF3763851D2.mvfrm
Library/Bee/artifacts/mvdfrm/Unity.VisualEffectGraph.Runtime.ref.dll_1844AAD4CF3D1A39.mvfrm
Library/Bee/artifacts/mvdfrm/Unity.VisualScripting.Core.Editor.ref.dll_514B12BC0D1D8DB7.mvfrm
Library/Bee/artifacts/mvdfrm/Unity.VisualScripting.Core.ref.dll_BF8650D11F8E519A.mvfrm
Library/Bee/artifacts/mvdfrm/Unity.VisualScripting.Flow.Editor.ref.dll_CE7BFB6B1BFC18F8.mvfrm
Library/Bee/artifacts/mvdfrm/Unity.VisualScripting.Flow.ref.dll_06973127A197C649.mvfrm
Library/Bee/artifacts/mvdfrm/Unity.VisualScripting.SettingsProvider.Editor.ref.dll_EE1755C0672F8EE2.mvfrm
Library/Bee/artifacts/mvdfrm/Unity.VisualScripting.Shared.Editor.ref.dll_6CA31C4FA5286AB1.mvfrm
Library/Bee/artifacts/mvdfrm/Unity.VisualScripting.State.Editor.ref.dll_DC1879B0E64A8F15.mvfrm
Library/Bee/artifacts/mvdfrm/Unity.VisualScripting.State.ref.dll_900B338E31D9525C.mvfrm
Library/Bee/artifacts/mvdfrm/Unity.VisualStudio.Editor.ref.dll_0FE027DDD6F41767.mvfrm
Library/Bee/artifacts/mvdfrm/UnityEditor.TestRunner.ref.dll_A805A84D9B0C22D9.mvfrm
Library/Bee/artifacts/mvdfrm/UnityEditor.UI.ref.dll_0174E068A5FA251B.mvfrm
Library/Bee/artifacts/mvdfrm/UnityEngine.Advertisements.Editor.ref.dll_F940915821288921.mvfrm
Library/Bee/artifacts/mvdfrm/UnityEngine.Advertisements.ref.dll_1A744DF41CC02790.mvfrm
Library/Bee/artifacts/mvdfrm/UnityEngine.TestRunner.ref.dll_7423F2FBC6CF80C4.mvfrm
Library/Bee/artifacts/mvdfrm/UnityEngine.UI.ref.dll_BDDAB6C3AC1C4D86.mvfrm
Library/Bee/artifacts/mvdfrm/Unity.Android.Gradle.dll_AE9163E3F4A823A4.mvfrm
Library/Bee/artifacts/mvdfrm/Unity.Android.GradleProject.dll_D9D958545118F251.mvfrm
Library/Bee/artifacts/mvdfrm/Unity.Android.Types.dll_143F1AB8A32550D8.mvfrm
Library/Bee/artifacts/mvdfrm/UnityEditor.Android.Extensions.dll_9B21C2C4305A7E64.mvfrm
Library/Bee/artifacts/mvdfrm/UnityEditor.iOS.Extensions.Common.dll_6E74BC6FBD7E08C1.mvfrm
Library/Bee/artifacts/mvdfrm/UnityEditor.iOS.Extensions.dll_E2BC64C230FD29D4.mvfrm
Library/Bee/artifacts/mvdfrm/UnityEditor.iOS.Extensions.Xcode.dll_68DE4DACAF4BB21B.mvfrm
Library/Bee/artifacts/mvdfrm/UnityEditor.Graphs.dll_392BCB0EB9221D0E.mvfrm
Library/Bee/artifacts/mvdfrm/UnityEditor.CoreModule.dll_CD7981BCDF396EDC.mvfrm
Library/Bee/artifacts/mvdfrm/UnityEditor.DeviceSimulatorModule.dll_C3F7DB2B6C3499A5.mvfrm
Library/Bee/artifacts/mvdfrm/UnityEditor.DiagnosticsModule.dll_4C6A859B9C825AB3.mvfrm
Library/Bee/artifacts/mvdfrm/UnityEditor.dll_1D8D516FBD1183F9.mvfrm
Library/Bee/artifacts/mvdfrm/UnityEditor.EditorToolbarModule.dll_68FA2C84FC3084D5.mvfrm
Library/Bee/artifacts/mvdfrm/UnityEditor.GraphViewModule.dll_E1F9CC18490EA62A.mvfrm
Library/Bee/artifacts/mvdfrm/UnityEditor.PresetsUIModule.dll_9D6004FA4B66FE2F.mvfrm
Library/Bee/artifacts/mvdfrm/UnityEditor.QuickSearchModule.dll_D77A06A8F559570C.mvfrm
Library/Bee/artifacts/mvdfrm/UnityEditor.SceneTemplateModule.dll_8C999D42FB1D2F0D.mvfrm
Library/Bee/artifacts/mvdfrm/UnityEditor.SceneViewModule.dll_20A9AF203E317338.mvfrm
Library/Bee/artifacts/mvdfrm/UnityEditor.TextCoreFontEngineModule.dll_C3E6AECFAC2AD8DA.mvfrm
Library/Bee/artifacts/mvdfrm/UnityEditor.TextCoreTextEngineModule.dll_0BCEE5413BAE91F8.mvfrm
Library/Bee/artifacts/mvdfrm/UnityEditor.UIBuilderModule.dll_36827934BBC71F5E.mvfrm
Library/Bee/artifacts/mvdfrm/UnityEditor.UIElementsModule.dll_58AA6FDD6BAC2898.mvfrm
Library/Bee/artifacts/mvdfrm/UnityEditor.UIElementsSamplesModule.dll_995C7D1FAFE98A55.mvfrm
Library/Bee/artifacts/mvdfrm/UnityEditor.UnityConnectModule.dll_0333DC325DB98B92.mvfrm
Library/Bee/artifacts/mvdfrm/UnityEngine.AccessibilityModule.dll_BF3F08D9FB9356AA.mvfrm
Library/Bee/artifacts/mvdfrm/UnityEngine.AIModule.dll_0F429B87321FF9B0.mvfrm
Library/Bee/artifacts/mvdfrm/UnityEngine.AndroidJNIModule.dll_D6F358B0B4CB976E.mvfrm
Library/Bee/artifacts/mvdfrm/UnityEngine.AnimationModule.dll_B07F4841236B7AD0.mvfrm
Library/Bee/artifacts/mvdfrm/UnityEngine.ARModule.dll_C8B5608A8F3D5879.mvfrm
Library/Bee/artifacts/mvdfrm/UnityEngine.AssetBundleModule.dll_1B63399A57C00BFE.mvfrm
Library/Bee/artifacts/mvdfrm/UnityEngine.AudioModule.dll_A694B0C81B91A7C2.mvfrm
Library/Bee/artifacts/mvdfrm/UnityEngine.ClothModule.dll_0D7D0DC2F5AE86A6.mvfrm
Library/Bee/artifacts/mvdfrm/UnityEngine.ClusterInputModule.dll_82D051480F415E58.mvfrm
Library/Bee/artifacts/mvdfrm/UnityEngine.ClusterRendererModule.dll_C9A49D9CDBEFA729.mvfrm
Library/Bee/artifacts/mvdfrm/UnityEngine.ContentLoadModule.dll_B47992DB2642B3EB.mvfrm
Library/Bee/artifacts/mvdfrm/UnityEngine.CoreModule.dll_F09A550F873EDA07.mvfrm
Library/Bee/artifacts/mvdfrm/UnityEngine.CrashReportingModule.dll_3523294CA33477FF.mvfrm
Library/Bee/artifacts/mvdfrm/UnityEngine.DirectorModule.dll_A55F40B32F4DF1E4.mvfrm
Library/Bee/artifacts/mvdfrm/UnityEngine.dll_503198481B8510DE.mvfrm
Library/Bee/artifacts/mvdfrm/UnityEngine.DSPGraphModule.dll_AAB0A21CA1AEC305.mvfrm
Library/Bee/artifacts/mvdfrm/UnityEngine.GameCenterModule.dll_0140A2CB7B0C885F.mvfrm
Library/Bee/artifacts/mvdfrm/UnityEngine.GIModule.dll_A77EE494CDCEE1CA.mvfrm
Library/Bee/artifacts/mvdfrm/UnityEngine.GridModule.dll_CE0B70FD9F936FFE.mvfrm
Library/Bee/artifacts/mvdfrm/UnityEngine.HotReloadModule.dll_31C80646FE9E9652.mvfrm
Library/Bee/artifacts/mvdfrm/UnityEngine.ImageConversionModule.dll_35969B4D5E145F1D.mvfrm
Library/Bee/artifacts/mvdfrm/UnityEngine.IMGUIModule.dll_DEF4502EE1C33BA3.mvfrm
Library/Bee/artifacts/mvdfrm/UnityEngine.InputLegacyModule.dll_ACA854B8EFB1C1EF.mvfrm
Library/Bee/artifacts/mvdfrm/UnityEngine.InputModule.dll_0D0A787891C9CC66.mvfrm
Library/Bee/artifacts/mvdfrm/UnityEngine.JSONSerializeModule.dll_1F569215FACEB734.mvfrm
Library/Bee/artifacts/mvdfrm/UnityEngine.LocalizationModule.dll_C11D1B9AA6BD5151.mvfrm
Library/Bee/artifacts/mvdfrm/UnityEngine.NVIDIAModule.dll_E9081360E19FA553.mvfrm
Library/Bee/artifacts/mvdfrm/UnityEngine.ParticleSystemModule.dll_883572991146038D.mvfrm
Library/Bee/artifacts/mvdfrm/UnityEngine.PerformanceReportingModule.dll_290D5F3B681435C6.mvfrm
Library/Bee/artifacts/mvdfrm/UnityEngine.Physics2DModule.dll_FD253831C4687265.mvfrm
Library/Bee/artifacts/mvdfrm/UnityEngine.PhysicsModule.dll_02DFA506B972BED3.mvfrm
Library/Bee/artifacts/mvdfrm/UnityEngine.ProfilerModule.dll_D7A579E9C8A778F1.mvfrm
Library/Bee/artifacts/mvdfrm/UnityEngine.PropertiesModule.dll_2E7BE209EDF7EC9B.mvfrm
Library/Bee/artifacts/mvdfrm/UnityEngine.RuntimeInitializeOnLoadManagerInitializerModule.dll_6745B15961462D2E.mvfrm
Library/Bee/artifacts/mvdfrm/UnityEngine.ScreenCaptureModule.dll_393E3F9B0F3AE396.mvfrm
Library/Bee/artifacts/mvdfrm/UnityEngine.SharedInternalsModule.dll_B9A7DA22D5425A6D.mvfrm
Library/Bee/artifacts/mvdfrm/UnityEngine.SpriteMaskModule.dll_EA6D155B9C7C1DD9.mvfrm
Library/Bee/artifacts/mvdfrm/UnityEngine.SpriteShapeModule.dll_34C466F50D624408.mvfrm
Library/Bee/artifacts/mvdfrm/UnityEngine.StreamingModule.dll_6514359172F3320E.mvfrm
Library/Bee/artifacts/mvdfrm/UnityEngine.SubstanceModule.dll_41BF49DABE46301C.mvfrm
Library/Bee/artifacts/mvdfrm/UnityEngine.SubsystemsModule.dll_551A7BBD6AC405EC.mvfrm
Library/Bee/artifacts/mvdfrm/UnityEngine.TerrainModule.dll_1D2620758F3107C1.mvfrm
Library/Bee/artifacts/mvdfrm/UnityEngine.TerrainPhysicsModule.dll_88B01B6C2A88FE1A.mvfrm
Library/Bee/artifacts/mvdfrm/UnityEngine.TextCoreFontEngineModule.dll_42462A22BF2897A5.mvfrm
Library/Bee/artifacts/mvdfrm/UnityEngine.TextCoreTextEngineModule.dll_8A2E60944EAC50C3.mvfrm
Library/Bee/artifacts/mvdfrm/UnityEngine.TextRenderingModule.dll_627DB1A5C672638B.mvfrm
Library/Bee/artifacts/mvdfrm/UnityEngine.TilemapModule.dll_BC2287F6A6EDE8CA.mvfrm
Library/Bee/artifacts/mvdfrm/UnityEngine.TLSModule.dll_C075A5588E30A2E7.mvfrm
Library/Bee/artifacts/mvdfrm/UnityEngine.UIElementsModule.dll_5958DD256DF041E3.mvfrm
Library/Bee/artifacts/mvdfrm/UnityEngine.UIModule.dll_0AB639B48E66FF5C.mvfrm
Library/Bee/artifacts/mvdfrm/UnityEngine.UmbraModule.dll_21695CE0A8B85335.mvfrm
Library/Bee/artifacts/mvdfrm/UnityEngine.UnityAnalyticsCommonModule.dll_C44C1C7F81FCD424.mvfrm
Library/Bee/artifacts/mvdfrm/UnityEngine.UnityAnalyticsModule.dll_A7D4E362BD6D5589.mvfrm
Library/Bee/artifacts/mvdfrm/UnityEngine.UnityConnectModule.dll_F093604158418C3D.mvfrm
Library/Bee/artifacts/mvdfrm/UnityEngine.UnityCurlModule.dll_E39BE972937F6CBD.mvfrm
Library/Bee/artifacts/mvdfrm/UnityEngine.UnityTestProtocolModule.dll_551F331209E4DFAB.mvfrm
Library/Bee/artifacts/mvdfrm/UnityEngine.UnityWebRequestAssetBundleModule.dll_128C198D85B8F71A.mvfrm
Library/Bee/artifacts/mvdfrm/UnityEngine.UnityWebRequestAudioModule.dll_A109B319EE7F005E.mvfrm
Library/Bee/artifacts/mvdfrm/UnityEngine.UnityWebRequestModule.dll_4735A2F76908F99C.mvfrm
Library/Bee/artifacts/mvdfrm/UnityEngine.UnityWebRequestTextureModule.dll_FB9A437BD71C6DF3.mvfrm
Library/Bee/artifacts/mvdfrm/UnityEngine.UnityWebRequestWWWModule.dll_54F0A5F03E6C0D2F.mvfrm
Library/Bee/artifacts/mvdfrm/UnityEngine.VehiclesModule.dll_1D223A32A977C17F.mvfrm
Library/Bee/artifacts/mvdfrm/UnityEngine.VFXModule.dll_41543DC7649E0C54.mvfrm
Library/Bee/artifacts/mvdfrm/UnityEngine.VideoModule.dll_CB9E3532DE23C367.mvfrm
Library/Bee/artifacts/mvdfrm/UnityEngine.VirtualTexturingModule.dll_E9EF381C604B51E5.mvfrm
Library/Bee/artifacts/mvdfrm/UnityEngine.VRModule.dll_5D88603A302184D4.mvfrm
Library/Bee/artifacts/mvdfrm/UnityEngine.WindModule.dll_66E9303818755870.mvfrm
Library/Bee/artifacts/mvdfrm/UnityEngine.XRModule.dll_9047233EB95BD232.mvfrm
Library/Bee/artifacts/mvdfrm/UnityEditor.OSXStandalone.Extensions.dll_789566D83E02802F.mvfrm
Library/Bee/artifacts/mvdfrm/Unity.Plastic.Antlr3.Runtime.dll_DBC5D081C4D6AF26.mvfrm
Library/Bee/artifacts/mvdfrm/Unity.Plastic.Newtonsoft.Json.dll_B06B77423C8110AF.mvfrm
Library/Bee/artifacts/mvdfrm/Unity.VisualScripting.IonicZip.dll_3753AE2E22DD17B6.mvfrm
Library/Bee/artifacts/mvdfrm/Unity.VisualScripting.YamlDotNet.dll_B9EB2E0105A28BA6.mvfrm
Library/Bee/artifacts/mvdfrm/Unity.VisualScripting.TextureAssets.dll_51095754C66FE99E.mvfrm
Library/Bee/artifacts/mvdfrm/Unity.VisualScripting.Antlr3.Runtime.dll_6B5854E2366B9BC5.mvfrm