-target:library
-out:"Library/Bee/artifacts/1300b0aE.dag/Unity.RenderPipelines.Universal.Runtime.dll"
-refout:"Library/Bee/artifacts/1300b0aE.dag/Unity.RenderPipelines.Universal.Runtime.ref.dll"
-define:UNITY_2022_3_7
-define:UNITY_2022_3
-define:UNITY_2022
-define:UNITY_5_3_OR_NEWER
-define:UNITY_5_4_OR_NEWER
-define:UNITY_5_5_OR_NEWER
-define:UNITY_5_6_OR_NEWER
-define:UNITY_2017_1_OR_NEWER
-define:UNITY_2017_2_OR_NEWER
-define:UNITY_2017_3_OR_NEWER
-define:UNITY_2017_4_OR_NEWER
-define:UNITY_2018_1_OR_NEWER
-define:UNITY_2018_2_OR_NEWER
-define:UNITY_2018_3_OR_NEWER
-define:UNITY_2018_4_OR_NEWER
-define:UNITY_2019_1_OR_NEWER
-define:UNITY_2019_2_OR_NEWER
-define:UNITY_2019_3_OR_NEWER
-define:UNITY_2019_4_OR_NEWER
-define:UNITY_2020_1_OR_NEWER
-define:UNITY_2020_2_OR_NEWER
-define:UNITY_2020_3_OR_NEWER
-define:UNITY_2021_1_OR_NEWER
-define:UNITY_2021_2_OR_NEWER
-define:UNITY_2021_3_OR_NEWER
-define:UNITY_2022_1_OR_NEWER
-define:UNITY_2022_2_OR_NEWER
-define:UNITY_2022_3_OR_NEWER
-define:UNITY_INCLUDE_TESTS
-define:ENABLE_AR
-define:ENABLE_AUDIO
-define:ENABLE_CACHING
-define:ENABLE_CLOTH
-define:ENABLE_EVENT_QUEUE
-define:ENABLE_MICROPHONE
-define:ENABLE_MULTIPLE_DISPLAYS
-define:ENABLE_PHYSICS
-define:ENABLE_TEXTURE_STREAMING
-define:ENABLE_LZMA
-define:ENABLE_UNITYEVENTS
-define:ENABLE_VR
-define:ENABLE_WEBCAM
-define:ENABLE_UNITYWEBREQUEST
-define:ENABLE_WWW
-define:ENABLE_CLOUD_SERVICES
-define:ENABLE_CLOUD_SERVICES_ADS
-define:ENABLE_CLOUD_SERVICES_USE_WEBREQUEST
-define:ENABLE_CLOUD_SERVICES_CRASH_REPORTING
-define:ENABLE_CLOUD_SERVICES_NATIVE_CRASH_REPORTING
-define:ENABLE_CLOUD_SERVICES_PURCHASING
-define:ENABLE_CLOUD_SERVICES_ANALYTICS
-define:ENABLE_CLOUD_SERVICES_BUILD
-define:ENABLE_EDITOR_GAME_SERVICES
-define:ENABLE_UNITY_GAME_SERVICES_ANALYTICS_SUPPORT
-define:ENABLE_CLOUD_LICENSE
-define:ENABLE_EDITOR_HUB_LICENSE
-define:ENABLE_WEBSOCKET_CLIENT
-define:ENABLE_GENERATE_NATIVE_PLUGINS_FOR_ASSEMBLIES_API
-define:ENABLE_DIRECTOR_AUDIO
-define:ENABLE_DIRECTOR_TEXTURE
-define:ENABLE_MANAGED_JOBS
-define:ENABLE_MANAGED_TRANSFORM_JOBS
-define:ENABLE_MANAGED_ANIMATION_JOBS
-define:ENABLE_MANAGED_AUDIO_JOBS
-define:ENABLE_RUNTIME_PERMISSIONS
-define:ENABLE_ENGINE_CODE_STRIPPING
-define:ENABLE_ONSCREEN_KEYBOARD
-define:ENABLE_MANAGED_UNITYTLS
-define:INCLUDE_DYNAMIC_GI
-define:ENABLE_SCRIPTING_GC_WBARRIERS
-define:PLATFORM_SUPPORTS_MONO
-define:ENABLE_VIDEO
-define:ENABLE_ACCELERATOR_CLIENT_DEBUGGING
-define:ENABLE_NAVIGATION_PACKAGE_DEBUG_VISUALIZATION
-define:ENABLE_NAVIGATION_HEIGHTMESH_RUNTIME_SUPPORT
-define:ENABLE_NAVIGATION_UI_REQUIRES_PACKAGE
-define:PLATFORM_ANDROID
-define:TEXTCORE_1_0_OR_NEWER
-define:UNITY_ANDROID
-define:UNITY_ANDROID_API
-define:ENABLE_EGL
-define:ENABLE_NETWORK
-define:ENABLE_RUNTIME_GI
-define:ENABLE_CRUNCH_TEXTURE_COMPRESSION
-define:UNITY_CAN_SHOW_SPLASH_SCREEN
-define:UNITY_HAS_GOOGLEVR
-define:UNITY_HAS_TANGO
-define:ENABLE_SPATIALTRACKING
-define:ENABLE_ETC_COMPRESSION
-define:PLATFORM_EXTENDS_VULKAN_DEVICE
-define:PLATFORM_HAS_MULTIPLE_SWAPCHAINS
-define:UNITY_ANDROID_SUPPORTS_SHADOWFILES
-define:PLATFORM_UPDATES_TIME_OUTSIDE_OF_PLAYER_LOOP
-define:ENABLE_UNITYADS_RUNTIME
-define:UNITY_UNITYADS_API
-define:ENABLE_MONO
-define:NET_4_6
-define:NET_UNITY_4_8
-define:ENABLE_PROFILER
-define:DEBUG
-define:TRACE
-define:UNITY_ASSERTIONS
-define:UNITY_EDITOR
-define:UNITY_EDITOR_64
-define:UNITY_EDITOR_OSX
-define:ENABLE_UNITY_COLLECTIONS_CHECKS
-define:ENABLE_BURST_AOT
-define:UNITY_TEAM_LICENSE
-define:ENABLE_CUSTOM_RENDER_TEXTURE
-define:ENABLE_DIRECTOR
-define:ENABLE_LOCALIZATION
-define:ENABLE_SPRITES
-define:ENABLE_TERRAIN
-define:ENABLE_TILEMAP
-define:ENABLE_TIMELINE
-define:ENABLE_LEGACY_INPUT_MANAGER
-define:TEXTCORE_FONT_ENGINE_1_5_OR_NEWER
-define:VUFORIA_ANDROID_SETTINGS
-define:VISUAL_EFFECT_GRAPH_0_0_1_OR_NEWER
-define:ENABLE_BURST_1_0_0_OR_NEWER
-define:ENABLE_VR_MODULE
-define:ENABLE_XR_MODULE
-define:USING_ANIMATION_MODULE
-define:USING_PHYSICS2D_MODULE
-define:CSHARP_7_OR_LATER
-define:CSHARP_7_3_OR_NEWER
-r:"/Applications/Unity/Hub/Editor/2022.3.7f1/PlaybackEngines/AndroidPlayer/Unity.Android.Gradle.dll"
-r:"/Applications/Unity/Hub/Editor/2022.3.7f1/PlaybackEngines/AndroidPlayer/Unity.Android.GradleProject.dll"
-r:"/Applications/Unity/Hub/Editor/2022.3.7f1/PlaybackEngines/AndroidPlayer/Unity.Android.Types.dll"
-r:"/Applications/Unity/Hub/Editor/2022.3.7f1/PlaybackEngines/AndroidPlayer/UnityEditor.Android.Extensions.dll"
-r:"/Applications/Unity/Hub/Editor/2022.3.7f1/PlaybackEngines/iOSSupport/UnityEditor.iOS.Extensions.Common.dll"
-r:"/Applications/Unity/Hub/Editor/2022.3.7f1/PlaybackEngines/iOSSupport/UnityEditor.iOS.Extensions.dll"
-r:"/Applications/Unity/Hub/Editor/2022.3.7f1/PlaybackEngines/iOSSupport/UnityEditor.iOS.Extensions.Xcode.dll"
-r:"/Applications/Unity/Hub/Editor/2022.3.7f1/Unity.app/Contents/Managed/UnityEditor.Graphs.dll"
-r:"/Applications/Unity/Hub/Editor/2022.3.7f1/Unity.app/Contents/Managed/UnityEngine/UnityEditor.CoreModule.dll"
-r:"/Applications/Unity/Hub/Editor/2022.3.7f1/Unity.app/Contents/Managed/UnityEngine/UnityEditor.DeviceSimulatorModule.dll"
-r:"/Applications/Unity/Hub/Editor/2022.3.7f1/Unity.app/Contents/Managed/UnityEngine/UnityEditor.DiagnosticsModule.dll"
-r:"/Applications/Unity/Hub/Editor/2022.3.7f1/Unity.app/Contents/Managed/UnityEngine/UnityEditor.dll"
-r:"/Applications/Unity/Hub/Editor/2022.3.7f1/Unity.app/Contents/Managed/UnityEngine/UnityEditor.EditorToolbarModule.dll"
-r:"/Applications/Unity/Hub/Editor/2022.3.7f1/Unity.app/Contents/Managed/UnityEngine/UnityEditor.GraphViewModule.dll"
-r:"/Applications/Unity/Hub/Editor/2022.3.7f1/Unity.app/Contents/Managed/UnityEngine/UnityEditor.PresetsUIModule.dll"
-r:"/Applications/Unity/Hub/Editor/2022.3.7f1/Unity.app/Contents/Managed/UnityEngine/UnityEditor.QuickSearchModule.dll"
-r:"/Applications/Unity/Hub/Editor/2022.3.7f1/Unity.app/Contents/Managed/UnityEngine/UnityEditor.SceneTemplateModule.dll"
-r:"/Applications/Unity/Hub/Editor/2022.3.7f1/Unity.app/Contents/Managed/UnityEngine/UnityEditor.SceneViewModule.dll"
-r:"/Applications/Unity/Hub/Editor/2022.3.7f1/Unity.app/Contents/Managed/UnityEngine/UnityEditor.TextCoreFontEngineModule.dll"
-r:"/Applications/Unity/Hub/Editor/2022.3.7f1/Unity.app/Contents/Managed/UnityEngine/UnityEditor.TextCoreTextEngineModule.dll"
-r:"/Applications/Unity/Hub/Editor/2022.3.7f1/Unity.app/Contents/Managed/UnityEngine/UnityEditor.UIBuilderModule.dll"
-r:"/Applications/Unity/Hub/Editor/2022.3.7f1/Unity.app/Contents/Managed/UnityEngine/UnityEditor.UIElementsModule.dll"
-r:"/Applications/Unity/Hub/Editor/2022.3.7f1/Unity.app/Contents/Managed/UnityEngine/UnityEditor.UIElementsSamplesModule.dll"
-r:"/Applications/Unity/Hub/Editor/2022.3.7f1/Unity.app/Contents/Managed/UnityEngine/UnityEditor.UnityConnectModule.dll"
-r:"/Applications/Unity/Hub/Editor/2022.3.7f1/Unity.app/Contents/Managed/UnityEngine/UnityEngine.AccessibilityModule.dll"
-r:"/Applications/Unity/Hub/Editor/2022.3.7f1/Unity.app/Contents/Managed/UnityEngine/UnityEngine.AIModule.dll"
-r:"/Applications/Unity/Hub/Editor/2022.3.7f1/Unity.app/Contents/Managed/UnityEngine/UnityEngine.AndroidJNIModule.dll"
-r:"/Applications/Unity/Hub/Editor/2022.3.7f1/Unity.app/Contents/Managed/UnityEngine/UnityEngine.AnimationModule.dll"
-r:"/Applications/Unity/Hub/Editor/2022.3.7f1/Unity.app/Contents/Managed/UnityEngine/UnityEngine.ARModule.dll"
-r:"/Applications/Unity/Hub/Editor/2022.3.7f1/Unity.app/Contents/Managed/UnityEngine/UnityEngine.AssetBundleModule.dll"
-r:"/Applications/Unity/Hub/Editor/2022.3.7f1/Unity.app/Contents/Managed/UnityEngine/UnityEngine.AudioModule.dll"
-r:"/Applications/Unity/Hub/Editor/2022.3.7f1/Unity.app/Contents/Managed/UnityEngine/UnityEngine.ClothModule.dll"
-r:"/Applications/Unity/Hub/Editor/2022.3.7f1/Unity.app/Contents/Managed/UnityEngine/UnityEngine.ContentLoadModule.dll"
-r:"/Applications/Unity/Hub/Editor/2022.3.7f1/Unity.app/Contents/Managed/UnityEngine/UnityEngine.CoreModule.dll"
-r:"/Applications/Unity/Hub/Editor/2022.3.7f1/Unity.app/Contents/Managed/UnityEngine/UnityEngine.CrashReportingModule.dll"
-r:"/Applications/Unity/Hub/Editor/2022.3.7f1/Unity.app/Contents/Managed/UnityEngine/UnityEngine.DirectorModule.dll"
-r:"/Applications/Unity/Hub/Editor/2022.3.7f1/Unity.app/Contents/Managed/UnityEngine/UnityEngine.dll"
-r:"/Applications/Unity/Hub/Editor/2022.3.7f1/Unity.app/Contents/Managed/UnityEngine/UnityEngine.DSPGraphModule.dll"
-r:"/Applications/Unity/Hub/Editor/2022.3.7f1/Unity.app/Contents/Managed/UnityEngine/UnityEngine.GameCenterModule.dll"
-r:"/Applications/Unity/Hub/Editor/2022.3.7f1/Unity.app/Contents/Managed/UnityEngine/UnityEngine.GIModule.dll"
-r:"/Applications/Unity/Hub/Editor/2022.3.7f1/Unity.app/Contents/Managed/UnityEngine/UnityEngine.GridModule.dll"
-r:"/Applications/Unity/Hub/Editor/2022.3.7f1/Unity.app/Contents/Managed/UnityEngine/UnityEngine.HotReloadModule.dll"
-r:"/Applications/Unity/Hub/Editor/2022.3.7f1/Unity.app/Contents/Managed/UnityEngine/UnityEngine.ImageConversionModule.dll"
-r:"/Applications/Unity/Hub/Editor/2022.3.7f1/Unity.app/Contents/Managed/UnityEngine/UnityEngine.IMGUIModule.dll"
-r:"/Applications/Unity/Hub/Editor/2022.3.7f1/Unity.app/Contents/Managed/UnityEngine/UnityEngine.InputLegacyModule.dll"
-r:"/Applications/Unity/Hub/Editor/2022.3.7f1/Unity.app/Contents/Managed/UnityEngine/UnityEngine.InputModule.dll"
-r:"/Applications/Unity/Hub/Editor/2022.3.7f1/Unity.app/Contents/Managed/UnityEngine/UnityEngine.JSONSerializeModule.dll"
-r:"/Applications/Unity/Hub/Editor/2022.3.7f1/Unity.app/Contents/Managed/UnityEngine/UnityEngine.LocalizationModule.dll"
-r:"/Applications/Unity/Hub/Editor/2022.3.7f1/Unity.app/Contents/Managed/UnityEngine/UnityEngine.ParticleSystemModule.dll"
-r:"/Applications/Unity/Hub/Editor/2022.3.7f1/Unity.app/Contents/Managed/UnityEngine/UnityEngine.PerformanceReportingModule.dll"
-r:"/Applications/Unity/Hub/Editor/2022.3.7f1/Unity.app/Contents/Managed/UnityEngine/UnityEngine.Physics2DModule.dll"
-r:"/Applications/Unity/Hub/Editor/2022.3.7f1/Unity.app/Contents/Managed/UnityEngine/UnityEngine.PhysicsModule.dll"
-r:"/Applications/Unity/Hub/Editor/2022.3.7f1/Unity.app/Contents/Managed/UnityEngine/UnityEngine.ProfilerModule.dll"
-r:"/Applications/Unity/Hub/Editor/2022.3.7f1/Unity.app/Contents/Managed/UnityEngine/UnityEngine.PropertiesModule.dll"
-r:"/Applications/Unity/Hub/Editor/2022.3.7f1/Unity.app/Contents/Managed/UnityEngine/UnityEngine.RuntimeInitializeOnLoadManagerInitializerModule.dll"
-r:"/Applications/Unity/Hub/Editor/2022.3.7f1/Unity.app/Contents/Managed/UnityEngine/UnityEngine.ScreenCaptureModule.dll"
-r:"/Applications/Unity/Hub/Editor/2022.3.7f1/Unity.app/Contents/Managed/UnityEngine/UnityEngine.SharedInternalsModule.dll"
-r:"/Applications/Unity/Hub/Editor/2022.3.7f1/Unity.app/Contents/Managed/UnityEngine/UnityEngine.SpriteMaskModule.dll"
-r:"/Applications/Unity/Hub/Editor/2022.3.7f1/Unity.app/Contents/Managed/UnityEngine/UnityEngine.SpriteShapeModule.dll"
-r:"/Applications/Unity/Hub/Editor/2022.3.7f1/Unity.app/Contents/Managed/UnityEngine/UnityEngine.StreamingModule.dll"
-r:"/Applications/Unity/Hub/Editor/2022.3.7f1/Unity.app/Contents/Managed/UnityEngine/UnityEngine.SubstanceModule.dll"
-r:"/Applications/Unity/Hub/Editor/2022.3.7f1/Unity.app/Contents/Managed/UnityEngine/UnityEngine.SubsystemsModule.dll"
-r:"/Applications/Unity/Hub/Editor/2022.3.7f1/Unity.app/Contents/Managed/UnityEngine/UnityEngine.TerrainModule.dll"
-r:"/Applications/Unity/Hub/Editor/2022.3.7f1/Unity.app/Contents/Managed/UnityEngine/UnityEngine.TerrainPhysicsModule.dll"
-r:"/Applications/Unity/Hub/Editor/2022.3.7f1/Unity.app/Contents/Managed/UnityEngine/UnityEngine.TextCoreFontEngineModule.dll"
-r:"/Applications/Unity/Hub/Editor/2022.3.7f1/Unity.app/Contents/Managed/UnityEngine/UnityEngine.TextCoreTextEngineModule.dll"
-r:"/Applications/Unity/Hub/Editor/2022.3.7f1/Unity.app/Contents/Managed/UnityEngine/UnityEngine.TextRenderingModule.dll"
-r:"/Applications/Unity/Hub/Editor/2022.3.7f1/Unity.app/Contents/Managed/UnityEngine/UnityEngine.TilemapModule.dll"
-r:"/Applications/Unity/Hub/Editor/2022.3.7f1/Unity.app/Contents/Managed/UnityEngine/UnityEngine.TLSModule.dll"
-r:"/Applications/Unity/Hub/Editor/2022.3.7f1/Unity.app/Contents/Managed/UnityEngine/UnityEngine.UIElementsModule.dll"
-r:"/Applications/Unity/Hub/Editor/2022.3.7f1/Unity.app/Contents/Managed/UnityEngine/UnityEngine.UIModule.dll"
-r:"/Applications/Unity/Hub/Editor/2022.3.7f1/Unity.app/Contents/Managed/UnityEngine/UnityEngine.UmbraModule.dll"
-r:"/Applications/Unity/Hub/Editor/2022.3.7f1/Unity.app/Contents/Managed/UnityEngine/UnityEngine.UnityAnalyticsCommonModule.dll"
-r:"/Applications/Unity/Hub/Editor/2022.3.7f1/Unity.app/Contents/Managed/UnityEngine/UnityEngine.UnityAnalyticsModule.dll"
-r:"/Applications/Unity/Hub/Editor/2022.3.7f1/Unity.app/Contents/Managed/UnityEngine/UnityEngine.UnityConnectModule.dll"
-r:"/Applications/Unity/Hub/Editor/2022.3.7f1/Unity.app/Contents/Managed/UnityEngine/UnityEngine.UnityCurlModule.dll"
-r:"/Applications/Unity/Hub/Editor/2022.3.7f1/Unity.app/Contents/Managed/UnityEngine/UnityEngine.UnityTestProtocolModule.dll"
-r:"/Applications/Unity/Hub/Editor/2022.3.7f1/Unity.app/Contents/Managed/UnityEngine/UnityEngine.UnityWebRequestAssetBundleModule.dll"
-r:"/Applications/Unity/Hub/Editor/2022.3.7f1/Unity.app/Contents/Managed/UnityEngine/UnityEngine.UnityWebRequestAudioModule.dll"
-r:"/Applications/Unity/Hub/Editor/2022.3.7f1/Unity.app/Contents/Managed/UnityEngine/UnityEngine.UnityWebRequestModule.dll"
-r:"/Applications/Unity/Hub/Editor/2022.3.7f1/Unity.app/Contents/Managed/UnityEngine/UnityEngine.UnityWebRequestTextureModule.dll"
-r:"/Applications/Unity/Hub/Editor/2022.3.7f1/Unity.app/Contents/Managed/UnityEngine/UnityEngine.UnityWebRequestWWWModule.dll"
-r:"/Applications/Unity/Hub/Editor/2022.3.7f1/Unity.app/Contents/Managed/UnityEngine/UnityEngine.VehiclesModule.dll"
-r:"/Applications/Unity/Hub/Editor/2022.3.7f1/Unity.app/Contents/Managed/UnityEngine/UnityEngine.VFXModule.dll"
-r:"/Applications/Unity/Hub/Editor/2022.3.7f1/Unity.app/Contents/Managed/UnityEngine/UnityEngine.VideoModule.dll"
-r:"/Applications/Unity/Hub/Editor/2022.3.7f1/Unity.app/Contents/Managed/UnityEngine/UnityEngine.VRModule.dll"
-r:"/Applications/Unity/Hub/Editor/2022.3.7f1/Unity.app/Contents/Managed/UnityEngine/UnityEngine.WindModule.dll"
-r:"/Applications/Unity/Hub/Editor/2022.3.7f1/Unity.app/Contents/Managed/UnityEngine/UnityEngine.XRModule.dll"
-r:"/Applications/Unity/Hub/Editor/2022.3.7f1/Unity.app/Contents/PlaybackEngines/MacStandaloneSupport/UnityEditor.OSXStandalone.Extensions.dll"
-r:"/Applications/Unity/Hub/Editor/2022.3.7f1/Unity.app/Contents/UnityReferenceAssemblies/unity-4.8-api/Facades/Microsoft.Win32.Primitives.dll"
-r:"/Applications/Unity/Hub/Editor/2022.3.7f1/Unity.app/Contents/UnityReferenceAssemblies/unity-4.8-api/Facades/netstandard.dll"
-r:"/Applications/Unity/Hub/Editor/2022.3.7f1/Unity.app/Contents/UnityReferenceAssemblies/unity-4.8-api/Facades/System.AppContext.dll"
-r:"/Applications/Unity/Hub/Editor/2022.3.7f1/Unity.app/Contents/UnityReferenceAssemblies/unity-4.8-api/Facades/System.Buffers.dll"
-r:"/Applications/Unity/Hub/Editor/2022.3.7f1/Unity.app/Contents/UnityReferenceAssemblies/unity-4.8-api/Facades/System.Collections.Concurrent.dll"
-r:"/Applications/Unity/Hub/Editor/2022.3.7f1/Unity.app/Contents/UnityReferenceAssemblies/unity-4.8-api/Facades/System.Collections.dll"
-r:"/Applications/Unity/Hub/Editor/2022.3.7f1/Unity.app/Contents/UnityReferenceAssemblies/unity-4.8-api/Facades/System.Collections.NonGeneric.dll"
-r:"/Applications/Unity/Hub/Editor/2022.3.7f1/Unity.app/Contents/UnityReferenceAssemblies/unity-4.8-api/Facades/System.Collections.Specialized.dll"
-r:"/Applications/Unity/Hub/Editor/2022.3.7f1/Unity.app/Contents/UnityReferenceAssemblies/unity-4.8-api/Facades/System.ComponentModel.Annotations.dll"
-r:"/Applications/Unity/Hub/Editor/2022.3.7f1/Unity.app/Contents/UnityReferenceAssemblies/unity-4.8-api/Facades/System.ComponentModel.dll"
-r:"/Applications/Unity/Hub/Editor/2022.3.7f1/Unity.app/Contents/UnityReferenceAssemblies/unity-4.8-api/Facades/System.ComponentModel.EventBasedAsync.dll"
-r:"/Applications/Unity/Hub/Editor/2022.3.7f1/Unity.app/Contents/UnityReferenceAssemblies/unity-4.8-api/Facades/System.ComponentModel.Primitives.dll"
-r:"/Applications/Unity/Hub/Editor/2022.3.7f1/Unity.app/Contents/UnityReferenceAssemblies/unity-4.8-api/Facades/System.ComponentModel.TypeConverter.dll"
-r:"/Applications/Unity/Hub/Editor/2022.3.7f1/Unity.app/Contents/UnityReferenceAssemblies/unity-4.8-api/Facades/System.Console.dll"
-r:"/Applications/Unity/Hub/Editor/2022.3.7f1/Unity.app/Contents/UnityReferenceAssemblies/unity-4.8-api/Facades/System.Data.Common.dll"
-r:"/Applications/Unity/Hub/Editor/2022.3.7f1/Unity.app/Contents/UnityReferenceAssemblies/unity-4.8-api/Facades/System.Diagnostics.Contracts.dll"
-r:"/Applications/Unity/Hub/Editor/2022.3.7f1/Unity.app/Contents/UnityReferenceAssemblies/unity-4.8-api/Facades/System.Diagnostics.Debug.dll"
-r:"/Applications/Unity/Hub/Editor/2022.3.7f1/Unity.app/Contents/UnityReferenceAssemblies/unity-4.8-api/Facades/System.Diagnostics.FileVersionInfo.dll"
-r:"/Applications/Unity/Hub/Editor/2022.3.7f1/Unity.app/Contents/UnityReferenceAssemblies/unity-4.8-api/Facades/System.Diagnostics.Process.dll"
-r:"/Applications/Unity/Hub/Editor/2022.3.7f1/Unity.app/Contents/UnityReferenceAssemblies/unity-4.8-api/Facades/System.Diagnostics.StackTrace.dll"
-r:"/Applications/Unity/Hub/Editor/2022.3.7f1/Unity.app/Contents/UnityReferenceAssemblies/unity-4.8-api/Facades/System.Diagnostics.TextWriterTraceListener.dll"
-r:"/Applications/Unity/Hub/Editor/2022.3.7f1/Unity.app/Contents/UnityReferenceAssemblies/unity-4.8-api/Facades/System.Diagnostics.Tools.dll"
-r:"/Applications/Unity/Hub/Editor/2022.3.7f1/Unity.app/Contents/UnityReferenceAssemblies/unity-4.8-api/Facades/System.Diagnostics.TraceSource.dll"
-r:"/Applications/Unity/Hub/Editor/2022.3.7f1/Unity.app/Contents/UnityReferenceAssemblies/unity-4.8-api/Facades/System.Drawing.Primitives.dll"
-r:"/Applications/Unity/Hub/Editor/2022.3.7f1/Unity.app/Contents/UnityReferenceAssemblies/unity-4.8-api/Facades/System.Dynamic.Runtime.dll"
-r:"/Applications/Unity/Hub/Editor/2022.3.7f1/Unity.app/Contents/UnityReferenceAssemblies/unity-4.8-api/Facades/System.Globalization.Calendars.dll"
-r:"/Applications/Unity/Hub/Editor/2022.3.7f1/Unity.app/Contents/UnityReferenceAssemblies/unity-4.8-api/Facades/System.Globalization.dll"
-r:"/Applications/Unity/Hub/Editor/2022.3.7f1/Unity.app/Contents/UnityReferenceAssemblies/unity-4.8-api/Facades/System.Globalization.Extensions.dll"
-r:"/Applications/Unity/Hub/Editor/2022.3.7f1/Unity.app/Contents/UnityReferenceAssemblies/unity-4.8-api/Facades/System.IO.Compression.ZipFile.dll"
-r:"/Applications/Unity/Hub/Editor/2022.3.7f1/Unity.app/Contents/UnityReferenceAssemblies/unity-4.8-api/Facades/System.IO.dll"
-r:"/Applications/Unity/Hub/Editor/2022.3.7f1/Unity.app/Contents/UnityReferenceAssemblies/unity-4.8-api/Facades/System.IO.FileSystem.dll"
-r:"/Applications/Unity/Hub/Editor/2022.3.7f1/Unity.app/Contents/UnityReferenceAssemblies/unity-4.8-api/Facades/System.IO.FileSystem.DriveInfo.dll"
-r:"/Applications/Unity/Hub/Editor/2022.3.7f1/Unity.app/Contents/UnityReferenceAssemblies/unity-4.8-api/Facades/System.IO.FileSystem.Primitives.dll"
-r:"/Applications/Unity/Hub/Editor/2022.3.7f1/Unity.app/Contents/UnityReferenceAssemblies/unity-4.8-api/Facades/System.IO.FileSystem.Watcher.dll"
-r:"/Applications/Unity/Hub/Editor/2022.3.7f1/Unity.app/Contents/UnityReferenceAssemblies/unity-4.8-api/Facades/System.IO.IsolatedStorage.dll"
-r:"/Applications/Unity/Hub/Editor/2022.3.7f1/Unity.app/Contents/UnityReferenceAssemblies/unity-4.8-api/Facades/System.IO.MemoryMappedFiles.dll"
-r:"/Applications/Unity/Hub/Editor/2022.3.7f1/Unity.app/Contents/UnityReferenceAssemblies/unity-4.8-api/Facades/System.IO.Pipes.dll"
-r:"/Applications/Unity/Hub/Editor/2022.3.7f1/Unity.app/Contents/UnityReferenceAssemblies/unity-4.8-api/Facades/System.IO.UnmanagedMemoryStream.dll"
-r:"/Applications/Unity/Hub/Editor/2022.3.7f1/Unity.app/Contents/UnityReferenceAssemblies/unity-4.8-api/Facades/System.Linq.dll"
-r:"/Applications/Unity/Hub/Editor/2022.3.7f1/Unity.app/Contents/UnityReferenceAssemblies/unity-4.8-api/Facades/System.Linq.Expressions.dll"
-r:"/Applications/Unity/Hub/Editor/2022.3.7f1/Unity.app/Contents/UnityReferenceAssemblies/unity-4.8-api/Facades/System.Linq.Parallel.dll"
-r:"/Applications/Unity/Hub/Editor/2022.3.7f1/Unity.app/Contents/UnityReferenceAssemblies/unity-4.8-api/Facades/System.Linq.Queryable.dll"
-r:"/Applications/Unity/Hub/Editor/2022.3.7f1/Unity.app/Contents/UnityReferenceAssemblies/unity-4.8-api/Facades/System.Memory.dll"
-r:"/Applications/Unity/Hub/Editor/2022.3.7f1/Unity.app/Contents/UnityReferenceAssemblies/unity-4.8-api/Facades/System.Net.Http.Rtc.dll"
-r:"/Applications/Unity/Hub/Editor/2022.3.7f1/Unity.app/Contents/UnityReferenceAssemblies/unity-4.8-api/Facades/System.Net.NameResolution.dll"
-r:"/Applications/Unity/Hub/Editor/2022.3.7f1/Unity.app/Contents/UnityReferenceAssemblies/unity-4.8-api/Facades/System.Net.NetworkInformation.dll"
-r:"/Applications/Unity/Hub/Editor/2022.3.7f1/Unity.app/Contents/UnityReferenceAssemblies/unity-4.8-api/Facades/System.Net.Ping.dll"
-r:"/Applications/Unity/Hub/Editor/2022.3.7f1/Unity.app/Contents/UnityReferenceAssemblies/unity-4.8-api/Facades/System.Net.Primitives.dll"
-r:"/Applications/Unity/Hub/Editor/2022.3.7f1/Unity.app/Contents/UnityReferenceAssemblies/unity-4.8-api/Facades/System.Net.Requests.dll"
-r:"/Applications/Unity/Hub/Editor/2022.3.7f1/Unity.app/Contents/UnityReferenceAssemblies/unity-4.8-api/Facades/System.Net.Security.dll"
-r:"/Applications/Unity/Hub/Editor/2022.3.7f1/Unity.app/Contents/UnityReferenceAssemblies/unity-4.8-api/Facades/System.Net.Sockets.dll"
-r:"/Applications/Unity/Hub/Editor/2022.3.7f1/Unity.app/Contents/UnityReferenceAssemblies/unity-4.8-api/Facades/System.Net.WebHeaderCollection.dll"
-r:"/Applications/Unity/Hub/Editor/2022.3.7f1/Unity.app/Contents/UnityReferenceAssemblies/unity-4.8-api/Facades/System.Net.WebSockets.Client.dll"
-r:"/Applications/Unity/Hub/Editor/2022.3.7f1/Unity.app/Contents/UnityReferenceAssemblies/unity-4.8-api/Facades/System.Net.WebSockets.dll"
-r:"/Applications/Unity/Hub/Editor/2022.3.7f1/Unity.app/Contents/UnityReferenceAssemblies/unity-4.8-api/Facades/System.ObjectModel.dll"
-r:"/Applications/Unity/Hub/Editor/2022.3.7f1/Unity.app/Contents/UnityReferenceAssemblies/unity-4.8-api/Facades/System.Reflection.DispatchProxy.dll"
-r:"/Applications/Unity/Hub/Editor/2022.3.7f1/Unity.app/Contents/UnityReferenceAssemblies/unity-4.8-api/Facades/System.Reflection.dll"
-r:"/Applications/Unity/Hub/Editor/2022.3.7f1/Unity.app/Contents/UnityReferenceAssemblies/unity-4.8-api/Facades/System.Reflection.Emit.dll"
-r:"/Applications/Unity/Hub/Editor/2022.3.7f1/Unity.app/Contents/UnityReferenceAssemblies/unity-4.8-api/Facades/System.Reflection.Emit.ILGeneration.dll"
-r:"/Applications/Unity/Hub/Editor/2022.3.7f1/Unity.app/Contents/UnityReferenceAssemblies/unity-4.8-api/Facades/System.Reflection.Emit.Lightweight.dll"
-r:"/Applications/Unity/Hub/Editor/2022.3.7f1/Unity.app/Contents/UnityReferenceAssemblies/unity-4.8-api/Facades/System.Reflection.Extensions.dll"
-r:"/Applications/Unity/Hub/Editor/2022.3.7f1/Unity.app/Contents/UnityReferenceAssemblies/unity-4.8-api/Facades/System.Reflection.Primitives.dll"
-r:"/Applications/Unity/Hub/Editor/2022.3.7f1/Unity.app/Contents/UnityReferenceAssemblies/unity-4.8-api/Facades/System.Resources.Reader.dll"
-r:"/Applications/Unity/Hub/Editor/2022.3.7f1/Unity.app/Contents/UnityReferenceAssemblies/unity-4.8-api/Facades/System.Resources.ResourceManager.dll"
-r:"/Applications/Unity/Hub/Editor/2022.3.7f1/Unity.app/Contents/UnityReferenceAssemblies/unity-4.8-api/Facades/System.Resources.Writer.dll"
-r:"/Applications/Unity/Hub/Editor/2022.3.7f1/Unity.app/Contents/UnityReferenceAssemblies/unity-4.8-api/Facades/System.Runtime.CompilerServices.VisualC.dll"
-r:"/Applications/Unity/Hub/Editor/2022.3.7f1/Unity.app/Contents/UnityReferenceAssemblies/unity-4.8-api/Facades/System.Runtime.dll"
-r:"/Applications/Unity/Hub/Editor/2022.3.7f1/Unity.app/Contents/UnityReferenceAssemblies/unity-4.8-api/Facades/System.Runtime.Extensions.dll"
-r:"/Applications/Unity/Hub/Editor/2022.3.7f1/Unity.app/Contents/UnityReferenceAssemblies/unity-4.8-api/Facades/System.Runtime.Handles.dll"
-r:"/Applications/Unity/Hub/Editor/2022.3.7f1/Unity.app/Contents/UnityReferenceAssemblies/unity-4.8-api/Facades/System.Runtime.InteropServices.dll"
-r:"/Applications/Unity/Hub/Editor/2022.3.7f1/Unity.app/Contents/UnityReferenceAssemblies/unity-4.8-api/Facades/System.Runtime.InteropServices.RuntimeInformation.dll"
-r:"/Applications/Unity/Hub/Editor/2022.3.7f1/Unity.app/Contents/UnityReferenceAssemblies/unity-4.8-api/Facades/System.Runtime.InteropServices.WindowsRuntime.dll"
-r:"/Applications/Unity/Hub/Editor/2022.3.7f1/Unity.app/Contents/UnityReferenceAssemblies/unity-4.8-api/Facades/System.Runtime.Numerics.dll"
-r:"/Applications/Unity/Hub/Editor/2022.3.7f1/Unity.app/Contents/UnityReferenceAssemblies/unity-4.8-api/Facades/System.Runtime.Serialization.Formatters.dll"
-r:"/Applications/Unity/Hub/Editor/2022.3.7f1/Unity.app/Contents/UnityReferenceAssemblies/unity-4.8-api/Facades/System.Runtime.Serialization.Json.dll"
-r:"/Applications/Unity/Hub/Editor/2022.3.7f1/Unity.app/Contents/UnityReferenceAssemblies/unity-4.8-api/Facades/System.Runtime.Serialization.Primitives.dll"
-r:"/Applications/Unity/Hub/Editor/2022.3.7f1/Unity.app/Contents/UnityReferenceAssemblies/unity-4.8-api/Facades/System.Runtime.Serialization.Xml.dll"
-r:"/Applications/Unity/Hub/Editor/2022.3.7f1/Unity.app/Contents/UnityReferenceAssemblies/unity-4.8-api/Facades/System.Security.Claims.dll"
-r:"/Applications/Unity/Hub/Editor/2022.3.7f1/Unity.app/Contents/UnityReferenceAssemblies/unity-4.8-api/Facades/System.Security.Cryptography.Algorithms.dll"
-r:"/Applications/Unity/Hub/Editor/2022.3.7f1/Unity.app/Contents/UnityReferenceAssemblies/unity-4.8-api/Facades/System.Security.Cryptography.Csp.dll"
-r:"/Applications/Unity/Hub/Editor/2022.3.7f1/Unity.app/Contents/UnityReferenceAssemblies/unity-4.8-api/Facades/System.Security.Cryptography.Encoding.dll"
-r:"/Applications/Unity/Hub/Editor/2022.3.7f1/Unity.app/Contents/UnityReferenceAssemblies/unity-4.8-api/Facades/System.Security.Cryptography.Primitives.dll"
-r:"/Applications/Unity/Hub/Editor/2022.3.7f1/Unity.app/Contents/UnityReferenceAssemblies/unity-4.8-api/Facades/System.Security.Cryptography.X509Certificates.dll"
-r:"/Applications/Unity/Hub/Editor/2022.3.7f1/Unity.app/Contents/UnityReferenceAssemblies/unity-4.8-api/Facades/System.Security.Principal.dll"
-r:"/Applications/Unity/Hub/Editor/2022.3.7f1/Unity.app/Contents/UnityReferenceAssemblies/unity-4.8-api/Facades/System.Security.SecureString.dll"
-r:"/Applications/Unity/Hub/Editor/2022.3.7f1/Unity.app/Contents/UnityReferenceAssemblies/unity-4.8-api/Facades/System.ServiceModel.Duplex.dll"
-r:"/Applications/Unity/Hub/Editor/2022.3.7f1/Unity.app/Contents/UnityReferenceAssemblies/unity-4.8-api/Facades/System.ServiceModel.Http.dll"
-r:"/Applications/Unity/Hub/Editor/2022.3.7f1/Unity.app/Contents/UnityReferenceAssemblies/unity-4.8-api/Facades/System.ServiceModel.NetTcp.dll"
-r:"/Applications/Unity/Hub/Editor/2022.3.7f1/Unity.app/Contents/UnityReferenceAssemblies/unity-4.8-api/Facades/System.ServiceModel.Primitives.dll"
-r:"/Applications/Unity/Hub/Editor/2022.3.7f1/Unity.app/Contents/UnityReferenceAssemblies/unity-4.8-api/Facades/System.ServiceModel.Security.dll"
-r:"/Applications/Unity/Hub/Editor/2022.3.7f1/Unity.app/Contents/UnityReferenceAssemblies/unity-4.8-api/Facades/System.Text.Encoding.dll"
-r:"/Applications/Unity/Hub/Editor/2022.3.7f1/Unity.app/Contents/UnityReferenceAssemblies/unity-4.8-api/Facades/System.Text.Encoding.Extensions.dll"
-r:"/Applications/Unity/Hub/Editor/2022.3.7f1/Unity.app/Contents/UnityReferenceAssemblies/unity-4.8-api/Facades/System.Text.RegularExpressions.dll"
-r:"/Applications/Unity/Hub/Editor/2022.3.7f1/Unity.app/Contents/UnityReferenceAssemblies/unity-4.8-api/Facades/System.Threading.dll"
-r:"/Applications/Unity/Hub/Editor/2022.3.7f1/Unity.app/Contents/UnityReferenceAssemblies/unity-4.8-api/Facades/System.Threading.Overlapped.dll"
-r:"/Applications/Unity/Hub/Editor/2022.3.7f1/Unity.app/Contents/UnityReferenceAssemblies/unity-4.8-api/Facades/System.Threading.Tasks.dll"
-r:"/Applications/Unity/Hub/Editor/2022.3.7f1/Unity.app/Contents/UnityReferenceAssemblies/unity-4.8-api/Facades/System.Threading.Tasks.Extensions.dll"
-r:"/Applications/Unity/Hub/Editor/2022.3.7f1/Unity.app/Contents/UnityReferenceAssemblies/unity-4.8-api/Facades/System.Threading.Tasks.Parallel.dll"
-r:"/Applications/Unity/Hub/Editor/2022.3.7f1/Unity.app/Contents/UnityReferenceAssemblies/unity-4.8-api/Facades/System.Threading.Thread.dll"
-r:"/Applications/Unity/Hub/Editor/2022.3.7f1/Unity.app/Contents/UnityReferenceAssemblies/unity-4.8-api/Facades/System.Threading.ThreadPool.dll"
-r:"/Applications/Unity/Hub/Editor/2022.3.7f1/Unity.app/Contents/UnityReferenceAssemblies/unity-4.8-api/Facades/System.Threading.Timer.dll"
-r:"/Applications/Unity/Hub/Editor/2022.3.7f1/Unity.app/Contents/UnityReferenceAssemblies/unity-4.8-api/Facades/System.ValueTuple.dll"
-r:"/Applications/Unity/Hub/Editor/2022.3.7f1/Unity.app/Contents/UnityReferenceAssemblies/unity-4.8-api/Facades/System.Xml.ReaderWriter.dll"
-r:"/Applications/Unity/Hub/Editor/2022.3.7f1/Unity.app/Contents/UnityReferenceAssemblies/unity-4.8-api/Facades/System.Xml.XDocument.dll"
-r:"/Applications/Unity/Hub/Editor/2022.3.7f1/Unity.app/Contents/UnityReferenceAssemblies/unity-4.8-api/Facades/System.Xml.XmlDocument.dll"
-r:"/Applications/Unity/Hub/Editor/2022.3.7f1/Unity.app/Contents/UnityReferenceAssemblies/unity-4.8-api/Facades/System.Xml.XmlSerializer.dll"
-r:"/Applications/Unity/Hub/Editor/2022.3.7f1/Unity.app/Contents/UnityReferenceAssemblies/unity-4.8-api/Facades/System.Xml.XPath.dll"
-r:"/Applications/Unity/Hub/Editor/2022.3.7f1/Unity.app/Contents/UnityReferenceAssemblies/unity-4.8-api/Facades/System.Xml.XPath.XDocument.dll"
-r:"/Applications/Unity/Hub/Editor/2022.3.7f1/Unity.app/Contents/UnityReferenceAssemblies/unity-4.8-api/Microsoft.CSharp.dll"
-r:"/Applications/Unity/Hub/Editor/2022.3.7f1/Unity.app/Contents/UnityReferenceAssemblies/unity-4.8-api/mscorlib.dll"
-r:"/Applications/Unity/Hub/Editor/2022.3.7f1/Unity.app/Contents/UnityReferenceAssemblies/unity-4.8-api/System.ComponentModel.Composition.dll"
-r:"/Applications/Unity/Hub/Editor/2022.3.7f1/Unity.app/Contents/UnityReferenceAssemblies/unity-4.8-api/System.Core.dll"
-r:"/Applications/Unity/Hub/Editor/2022.3.7f1/Unity.app/Contents/UnityReferenceAssemblies/unity-4.8-api/System.Data.DataSetExtensions.dll"
-r:"/Applications/Unity/Hub/Editor/2022.3.7f1/Unity.app/Contents/UnityReferenceAssemblies/unity-4.8-api/System.Data.dll"
-r:"/Applications/Unity/Hub/Editor/2022.3.7f1/Unity.app/Contents/UnityReferenceAssemblies/unity-4.8-api/System.dll"
-r:"/Applications/Unity/Hub/Editor/2022.3.7f1/Unity.app/Contents/UnityReferenceAssemblies/unity-4.8-api/System.Drawing.dll"
-r:"/Applications/Unity/Hub/Editor/2022.3.7f1/Unity.app/Contents/UnityReferenceAssemblies/unity-4.8-api/System.IO.Compression.dll"
-r:"/Applications/Unity/Hub/Editor/2022.3.7f1/Unity.app/Contents/UnityReferenceAssemblies/unity-4.8-api/System.IO.Compression.FileSystem.dll"
-r:"/Applications/Unity/Hub/Editor/2022.3.7f1/Unity.app/Contents/UnityReferenceAssemblies/unity-4.8-api/System.Net.Http.dll"
-r:"/Applications/Unity/Hub/Editor/2022.3.7f1/Unity.app/Contents/UnityReferenceAssemblies/unity-4.8-api/System.Numerics.dll"
-r:"/Applications/Unity/Hub/Editor/2022.3.7f1/Unity.app/Contents/UnityReferenceAssemblies/unity-4.8-api/System.Numerics.Vectors.dll"
-r:"/Applications/Unity/Hub/Editor/2022.3.7f1/Unity.app/Contents/UnityReferenceAssemblies/unity-4.8-api/System.Runtime.Serialization.dll"
-r:"/Applications/Unity/Hub/Editor/2022.3.7f1/Unity.app/Contents/UnityReferenceAssemblies/unity-4.8-api/System.Transactions.dll"
-r:"/Applications/Unity/Hub/Editor/2022.3.7f1/Unity.app/Contents/UnityReferenceAssemblies/unity-4.8-api/System.Xml.dll"
-r:"/Applications/Unity/Hub/Editor/2022.3.7f1/Unity.app/Contents/UnityReferenceAssemblies/unity-4.8-api/System.Xml.Linq.dll"
-r:"Assets/ExternalDependencyManager/Editor/1.2.176/Google.IOSResolver.dll"
-r:"Assets/ExternalDependencyManager/Editor/1.2.176/Google.JarResolver.dll"
-r:"Assets/ExternalDependencyManager/Editor/1.2.176/Google.PackageManagerResolver.dll"
-r:"Assets/ExternalDependencyManager/Editor/1.2.176/Google.VersionHandlerImpl.dll"
-r:"Assets/ExternalDependencyManager/Editor/Google.VersionHandler.dll"
-r:"Assets/Firebase/Editor/Firebase.Editor.dll"
-r:"Assets/Firebase/Plugins/Firebase.App.dll"
-r:"Assets/Firebase/Plugins/Firebase.Auth.dll"
-r:"Assets/Firebase/Plugins/Firebase.Database.dll"
-r:"Assets/Firebase/Plugins/Firebase.Firestore.dll"
-r:"Assets/Firebase/Plugins/Firebase.Platform.dll"
-r:"Assets/Firebase/Plugins/Firebase.Storage.dll"
-r:"Assets/Firebase/Plugins/Firebase.TaskExtension.dll"
-r:"Assets/Firebase/Plugins/Google.MiniJson.dll"
-r:"Library/PackageCache/com.ptc.vuforia.engine@161c1f01b781/Vuforia/Plugins/Managed/Editor/Vuforia.Unity.Editor.dll"
-r:"Library/PackageCache/com.ptc.vuforia.engine@161c1f01b781/Vuforia/Plugins/Managed/Runtime/Vuforia.Unity.Engine.dll"
-r:"Library/PackageCache/com.ptc.vuforia.engine@161c1f01b781/Vuforia/Plugins/Managed/Runtime/Vuforia.Unity.Wrapper.dll"
-r:"Library/PackageCache/com.unity.collab-proxy@2.0.7/Lib/Editor/PlasticSCM/log4netPlastic.dll"
-r:"Library/PackageCache/com.unity.collab-proxy@2.0.7/Lib/Editor/PlasticSCM/Unity.Plastic.Antlr3.Runtime.dll"
-r:"Library/PackageCache/com.unity.collab-proxy@2.0.7/Lib/Editor/PlasticSCM/Unity.Plastic.Newtonsoft.Json.dll"
-r:"Library/PackageCache/com.unity.collab-proxy@2.0.7/Lib/Editor/PlasticSCM/unityplastic.dll"
-r:"Library/PackageCache/com.unity.testtools.codecoverage@1.2.4/lib/ReportGenerator/ReportGeneratorMerged.dll"
-r:"Library/PackageCache/com.unity.visualscripting@1.8.0/Editor/VisualScripting.Core/Dependencies/DotNetZip/Unity.VisualScripting.IonicZip.dll"
-r:"Library/PackageCache/com.unity.visualscripting@1.8.0/Editor/VisualScripting.Core/Dependencies/YamlDotNet/Unity.VisualScripting.YamlDotNet.dll"
-r:"Library/PackageCache/com.unity.visualscripting@1.8.0/Editor/VisualScripting.Core/EditorAssetResources/Unity.VisualScripting.TextureAssets.dll"
-r:"Library/PackageCache/com.unity.visualscripting@1.8.0/Runtime/VisualScripting.Flow/Dependencies/NCalc/Unity.VisualScripting.Antlr3.Runtime.dll"
-r:"Library/Bee/artifacts/1300b0aE.dag/Unity.Burst.ref.dll"
-r:"Library/Bee/artifacts/1300b0aE.dag/Unity.Mathematics.ref.dll"
-r:"Library/Bee/artifacts/1300b0aE.dag/Unity.RenderPipeline.Universal.ShaderLibrary.ref.dll"
-r:"Library/Bee/artifacts/1300b0aE.dag/Unity.RenderPipelines.Core.Runtime.ref.dll"
-r:"Library/Bee/artifacts/1300b0aE.dag/UnityEditor.UI.ref.dll"
-r:"Library/Bee/artifacts/1300b0aE.dag/UnityEngine.UI.ref.dll"
-analyzer:"/Applications/Unity/Hub/Editor/2022.3.7f1/Unity.app/Contents/Tools/Unity.SourceGenerators/Unity.Properties.SourceGenerator.dll"
-analyzer:"/Applications/Unity/Hub/Editor/2022.3.7f1/Unity.app/Contents/Tools/Unity.SourceGenerators/Unity.SourceGenerators.dll"
"Library/PackageCache/com.unity.render-pipelines.universal@14.0.8/Runtime/2D/CinemachineUniversalPixelPerfect.cs"
"Library/PackageCache/com.unity.render-pipelines.universal@14.0.8/Runtime/2D/Clipper.cs"
"Library/PackageCache/com.unity.render-pipelines.universal@14.0.8/Runtime/2D/Light2D.cs"
"Library/PackageCache/com.unity.render-pipelines.universal@14.0.8/Runtime/2D/Light2DAuthoring.cs"
"Library/PackageCache/com.unity.render-pipelines.universal@14.0.8/Runtime/2D/Light2DBlendStyle.cs"
"Library/PackageCache/com.unity.render-pipelines.universal@14.0.8/Runtime/2D/Light2DCullResult.cs"
"Library/PackageCache/com.unity.render-pipelines.universal@14.0.8/Runtime/2D/Light2DManager.cs"
"Library/PackageCache/com.unity.render-pipelines.universal@14.0.8/Runtime/2D/Light2DPoint.cs"
"Library/PackageCache/com.unity.render-pipelines.universal@14.0.8/Runtime/2D/Light2DShape.cs"
"Library/PackageCache/com.unity.render-pipelines.universal@14.0.8/Runtime/2D/LightUtility.cs"
"Library/PackageCache/com.unity.render-pipelines.universal@14.0.8/Runtime/2D/Passes/IRenderPass2D.cs"
"Library/PackageCache/com.unity.render-pipelines.universal@14.0.8/Runtime/2D/Passes/PixelPerfectBackgroundPass.cs"
"Library/PackageCache/com.unity.render-pipelines.universal@14.0.8/Runtime/2D/Passes/Render2DLightingPass.cs"
"Library/PackageCache/com.unity.render-pipelines.universal@14.0.8/Runtime/2D/Passes/UpscalePass.cs"
"Library/PackageCache/com.unity.render-pipelines.universal@14.0.8/Runtime/2D/Passes/Utility/LayerUtility.cs"
"Library/PackageCache/com.unity.render-pipelines.universal@14.0.8/Runtime/2D/Passes/Utility/Light2DLookupTexture.cs"
"Library/PackageCache/com.unity.render-pipelines.universal@14.0.8/Runtime/2D/Passes/Utility/RendererLighting.cs"
"Library/PackageCache/com.unity.render-pipelines.universal@14.0.8/Runtime/2D/PixelPerfectCamera.cs"
"Library/PackageCache/com.unity.render-pipelines.universal@14.0.8/Runtime/2D/PixelPerfectCameraInternal.cs"
"Library/PackageCache/com.unity.render-pipelines.universal@14.0.8/Runtime/2D/Renderer2D.cs"
"Library/PackageCache/com.unity.render-pipelines.universal@14.0.8/Runtime/2D/Renderer2DData.cs"
"Library/PackageCache/com.unity.render-pipelines.universal@14.0.8/Runtime/2D/Renderer2DDataAuthoring.cs"
"Library/PackageCache/com.unity.render-pipelines.universal@14.0.8/Runtime/2D/Shadows/CompositeShadowCaster2D.cs"
"Library/PackageCache/com.unity.render-pipelines.universal@14.0.8/Runtime/2D/Shadows/ShadowCaster2D.cs"
"Library/PackageCache/com.unity.render-pipelines.universal@14.0.8/Runtime/2D/Shadows/ShadowCasterGroup2D.cs"
"Library/PackageCache/com.unity.render-pipelines.universal@14.0.8/Runtime/2D/Shadows/ShadowCasterGroup2DManager.cs"
"Library/PackageCache/com.unity.render-pipelines.universal@14.0.8/Runtime/2D/Shadows/ShadowRendering.cs"
"Library/PackageCache/com.unity.render-pipelines.universal@14.0.8/Runtime/2D/Shadows/ShadowUtility.cs"
"Library/PackageCache/com.unity.render-pipelines.universal@14.0.8/Runtime/2D/UTess2D/ArraySlice.cs"
"Library/PackageCache/com.unity.render-pipelines.universal@14.0.8/Runtime/2D/UTess2D/PlanarGraph.cs"
"Library/PackageCache/com.unity.render-pipelines.universal@14.0.8/Runtime/2D/UTess2D/Refinery.cs"
"Library/PackageCache/com.unity.render-pipelines.universal@14.0.8/Runtime/2D/UTess2D/Smoothen.cs"
"Library/PackageCache/com.unity.render-pipelines.universal@14.0.8/Runtime/2D/UTess2D/Tessellator.cs"
"Library/PackageCache/com.unity.render-pipelines.universal@14.0.8/Runtime/2D/UTess2D/UTess.cs"
"Library/PackageCache/com.unity.render-pipelines.universal@14.0.8/Runtime/AssemblyInfo.cs"
"Library/PackageCache/com.unity.render-pipelines.universal@14.0.8/Runtime/ComponentUtility.cs"
"Library/PackageCache/com.unity.render-pipelines.universal@14.0.8/Runtime/Data/PostProcessData.cs"
"Library/PackageCache/com.unity.render-pipelines.universal@14.0.8/Runtime/Data/RenderStateData.cs"
"Library/PackageCache/com.unity.render-pipelines.universal@14.0.8/Runtime/Data/UniversalRenderPipelineAsset.cs"
"Library/PackageCache/com.unity.render-pipelines.universal@14.0.8/Runtime/Data/UniversalRenderPipelineAssetPrefiltering.cs"
"Library/PackageCache/com.unity.render-pipelines.universal@14.0.8/Runtime/Data/UniversalRenderPipelineEditorResources.cs"
"Library/PackageCache/com.unity.render-pipelines.universal@14.0.8/Runtime/Data/XRSystemData.cs"
"Library/PackageCache/com.unity.render-pipelines.universal@14.0.8/Runtime/Debug/DebugDisplaySettingsCommon.cs"
"Library/PackageCache/com.unity.render-pipelines.universal@14.0.8/Runtime/Debug/DebugDisplaySettingsLighting.cs"
"Library/PackageCache/com.unity.render-pipelines.universal@14.0.8/Runtime/Debug/DebugDisplaySettingsMaterial.cs"
"Library/PackageCache/com.unity.render-pipelines.universal@14.0.8/Runtime/Debug/DebugDisplaySettingsRendering.cs"
"Library/PackageCache/com.unity.render-pipelines.universal@14.0.8/Runtime/Debug/DebugDisplayStats.cs"
"Library/PackageCache/com.unity.render-pipelines.universal@14.0.8/Runtime/Debug/DebugHandler.cs"
"Library/PackageCache/com.unity.render-pipelines.universal@14.0.8/Runtime/Debug/DebugRenderSetup.cs"
"Library/PackageCache/com.unity.render-pipelines.universal@14.0.8/Runtime/Debug/UniversalRenderPipelineDebugDisplaySettings.cs"
"Library/PackageCache/com.unity.render-pipelines.universal@14.0.8/Runtime/Debug/UniversalRenderPipelineVolumeDebugSettings.cs"
"Library/PackageCache/com.unity.render-pipelines.universal@14.0.8/Runtime/Decal/DBuffer/DBufferRenderPass.cs"
"Library/PackageCache/com.unity.render-pipelines.universal@14.0.8/Runtime/Decal/DBuffer/DecalForwardEmissivePass.cs"
"Library/PackageCache/com.unity.render-pipelines.universal@14.0.8/Runtime/Decal/DecalDrawErrorRenderPass.cs"
"Library/PackageCache/com.unity.render-pipelines.universal@14.0.8/Runtime/Decal/DecalPreviewPass.cs"
"Library/PackageCache/com.unity.render-pipelines.universal@14.0.8/Runtime/Decal/DecalProjector.cs"
"Library/PackageCache/com.unity.render-pipelines.universal@14.0.8/Runtime/Decal/DecalShaderPassNames.cs"
"Library/PackageCache/com.unity.render-pipelines.universal@14.0.8/Runtime/Decal/Entities/DecalChunk.cs"
"Library/PackageCache/com.unity.render-pipelines.universal@14.0.8/Runtime/Decal/Entities/DecalCreateDrawCallSystem.cs"
"Library/PackageCache/com.unity.render-pipelines.universal@14.0.8/Runtime/Decal/Entities/DecalDrawSystem.cs"
"Library/PackageCache/com.unity.render-pipelines.universal@14.0.8/Runtime/Decal/Entities/DecalEntityManager.cs"
"Library/PackageCache/com.unity.render-pipelines.universal@14.0.8/Runtime/Decal/Entities/DecalSkipCulledSystem.cs"
"Library/PackageCache/com.unity.render-pipelines.universal@14.0.8/Runtime/Decal/Entities/DecalUpdateCachedSystem.cs"
"Library/PackageCache/com.unity.render-pipelines.universal@14.0.8/Runtime/Decal/Entities/DecalUpdateCulledSystem.cs"
"Library/PackageCache/com.unity.render-pipelines.universal@14.0.8/Runtime/Decal/Entities/DecalUpdateCullingGroupSystem.cs"
"Library/PackageCache/com.unity.render-pipelines.universal@14.0.8/Runtime/Decal/ScreenSpace/DecalGBufferRenderPass.cs"
"Library/PackageCache/com.unity.render-pipelines.universal@14.0.8/Runtime/Decal/ScreenSpace/DecalScreenSpaceRenderPass.cs"
"Library/PackageCache/com.unity.render-pipelines.universal@14.0.8/Runtime/DeferredLights.cs"
"Library/PackageCache/com.unity.render-pipelines.universal@14.0.8/Runtime/Deprecated.cs"
"Library/PackageCache/com.unity.render-pipelines.universal@14.0.8/Runtime/Documentation.cs"
"Library/PackageCache/com.unity.render-pipelines.universal@14.0.8/Runtime/External/LibTessDotNet/Dict.cs"
"Library/PackageCache/com.unity.render-pipelines.universal@14.0.8/Runtime/External/LibTessDotNet/Geom.cs"
"Library/PackageCache/com.unity.render-pipelines.universal@14.0.8/Runtime/External/LibTessDotNet/Mesh.cs"
"Library/PackageCache/com.unity.render-pipelines.universal@14.0.8/Runtime/External/LibTessDotNet/MeshUtils.cs"
"Library/PackageCache/com.unity.render-pipelines.universal@14.0.8/Runtime/External/LibTessDotNet/PriorityHeap.cs"
"Library/PackageCache/com.unity.render-pipelines.universal@14.0.8/Runtime/External/LibTessDotNet/PriorityQueue.cs"
"Library/PackageCache/com.unity.render-pipelines.universal@14.0.8/Runtime/External/LibTessDotNet/Sweep.cs"
"Library/PackageCache/com.unity.render-pipelines.universal@14.0.8/Runtime/External/LibTessDotNet/Tess.cs"
"Library/PackageCache/com.unity.render-pipelines.universal@14.0.8/Runtime/ForwardLights.cs"
"Library/PackageCache/com.unity.render-pipelines.universal@14.0.8/Runtime/ForwardRendererData.cs"
"Library/PackageCache/com.unity.render-pipelines.universal@14.0.8/Runtime/IntermediateTextureMode.cs"
"Library/PackageCache/com.unity.render-pipelines.universal@14.0.8/Runtime/LightCookieManager.cs"
"Library/PackageCache/com.unity.render-pipelines.universal@14.0.8/Runtime/Memory/BuddyAllocator.cs"
"Library/PackageCache/com.unity.render-pipelines.universal@14.0.8/Runtime/Memory/Fixed2.cs"
"Library/PackageCache/com.unity.render-pipelines.universal@14.0.8/Runtime/Memory/PinnedArray.cs"
"Library/PackageCache/com.unity.render-pipelines.universal@14.0.8/Runtime/MotionVectors.cs"
"Library/PackageCache/com.unity.render-pipelines.universal@14.0.8/Runtime/NativeRenderPass.cs"
"Library/PackageCache/com.unity.render-pipelines.universal@14.0.8/Runtime/NormalReconstruction.cs"
"Library/PackageCache/com.unity.render-pipelines.universal@14.0.8/Runtime/Overrides/Bloom.cs"
"Library/PackageCache/com.unity.render-pipelines.universal@14.0.8/Runtime/Overrides/ChannelMixer.cs"
"Library/PackageCache/com.unity.render-pipelines.universal@14.0.8/Runtime/Overrides/ChromaticAberration.cs"
"Library/PackageCache/com.unity.render-pipelines.universal@14.0.8/Runtime/Overrides/ColorAdjustments.cs"
"Library/PackageCache/com.unity.render-pipelines.universal@14.0.8/Runtime/Overrides/ColorCurves.cs"
"Library/PackageCache/com.unity.render-pipelines.universal@14.0.8/Runtime/Overrides/ColorLookup.cs"
"Library/PackageCache/com.unity.render-pipelines.universal@14.0.8/Runtime/Overrides/DepthOfField.cs"
"Library/PackageCache/com.unity.render-pipelines.universal@14.0.8/Runtime/Overrides/FilmGrain.cs"
"Library/PackageCache/com.unity.render-pipelines.universal@14.0.8/Runtime/Overrides/LensDistortion.cs"
"Library/PackageCache/com.unity.render-pipelines.universal@14.0.8/Runtime/Overrides/LiftGammaGain.cs"
"Library/PackageCache/com.unity.render-pipelines.universal@14.0.8/Runtime/Overrides/MotionBlur.cs"
"Library/PackageCache/com.unity.render-pipelines.universal@14.0.8/Runtime/Overrides/PaniniProjection.cs"
"Library/PackageCache/com.unity.render-pipelines.universal@14.0.8/Runtime/Overrides/ShadowsMidtonesHighlights.cs"
"Library/PackageCache/com.unity.render-pipelines.universal@14.0.8/Runtime/Overrides/SplitToning.cs"
"Library/PackageCache/com.unity.render-pipelines.universal@14.0.8/Runtime/Overrides/Tonemapping.cs"
"Library/PackageCache/com.unity.render-pipelines.universal@14.0.8/Runtime/Overrides/Vignette.cs"
"Library/PackageCache/com.unity.render-pipelines.universal@14.0.8/Runtime/Overrides/WhiteBalance.cs"
"Library/PackageCache/com.unity.render-pipelines.universal@14.0.8/Runtime/Passes/AdditionalLightsShadowCasterPass.cs"
"Library/PackageCache/com.unity.render-pipelines.universal@14.0.8/Runtime/Passes/CapturePass.cs"
"Library/PackageCache/com.unity.render-pipelines.universal@14.0.8/Runtime/Passes/ColorGradingLutPass.cs"
"Library/PackageCache/com.unity.render-pipelines.universal@14.0.8/Runtime/Passes/CopyColorPass.cs"
"Library/PackageCache/com.unity.render-pipelines.universal@14.0.8/Runtime/Passes/CopyDepthPass.cs"
"Library/PackageCache/com.unity.render-pipelines.universal@14.0.8/Runtime/Passes/DeferredPass.cs"
"Library/PackageCache/com.unity.render-pipelines.universal@14.0.8/Runtime/Passes/DepthNormalOnlyPass.cs"
"Library/PackageCache/com.unity.render-pipelines.universal@14.0.8/Runtime/Passes/DepthOnlyPass.cs"
"Library/PackageCache/com.unity.render-pipelines.universal@14.0.8/Runtime/Passes/DrawObjectsPass.cs"
"Library/PackageCache/com.unity.render-pipelines.universal@14.0.8/Runtime/Passes/DrawScreenSpaceUIPass.cs"
"Library/PackageCache/com.unity.render-pipelines.universal@14.0.8/Runtime/Passes/DrawSkyboxPass.cs"
"Library/PackageCache/com.unity.render-pipelines.universal@14.0.8/Runtime/Passes/FinalBlitPass.cs"
"Library/PackageCache/com.unity.render-pipelines.universal@14.0.8/Runtime/Passes/GBufferPass.cs"
"Library/PackageCache/com.unity.render-pipelines.universal@14.0.8/Runtime/Passes/HDRDebugViewPass.cs"
"Library/PackageCache/com.unity.render-pipelines.universal@14.0.8/Runtime/Passes/InvokeOnRenderObjectCallbackPass.cs"
"Library/PackageCache/com.unity.render-pipelines.universal@14.0.8/Runtime/Passes/MainLightShadowCasterPass.cs"
"Library/PackageCache/com.unity.render-pipelines.universal@14.0.8/Runtime/Passes/MotionVectorRenderPass.cs"
"Library/PackageCache/com.unity.render-pipelines.universal@14.0.8/Runtime/Passes/PostProcessPass.cs"
"Library/PackageCache/com.unity.render-pipelines.universal@14.0.8/Runtime/Passes/RenderObjectsPass.cs"
"Library/PackageCache/com.unity.render-pipelines.universal@14.0.8/Runtime/Passes/ScriptableRenderPass.cs"
"Library/PackageCache/com.unity.render-pipelines.universal@14.0.8/Runtime/Passes/TransparentSettingsPass.cs"
"Library/PackageCache/com.unity.render-pipelines.universal@14.0.8/Runtime/Passes/XROcclusionMeshPass.cs"
"Library/PackageCache/com.unity.render-pipelines.universal@14.0.8/Runtime/PostProcessPasses.cs"
"Library/PackageCache/com.unity.render-pipelines.universal@14.0.8/Runtime/PostProcessUtils.cs"
"Library/PackageCache/com.unity.render-pipelines.universal@14.0.8/Runtime/ReflectionProbeManager.cs"
"Library/PackageCache/com.unity.render-pipelines.universal@14.0.8/Runtime/RendererFeatures/DecalRendererFeature.cs"
"Library/PackageCache/com.unity.render-pipelines.universal@14.0.8/Runtime/RendererFeatures/DisallowMultipleRendererFeature.cs"
"Library/PackageCache/com.unity.render-pipelines.universal@14.0.8/Runtime/RendererFeatures/FullScreenPassRendererFeature.cs"
"Library/PackageCache/com.unity.render-pipelines.universal@14.0.8/Runtime/RendererFeatures/RenderObjects.cs"
"Library/PackageCache/com.unity.render-pipelines.universal@14.0.8/Runtime/RendererFeatures/ScreenSpaceAmbientOcclusion.cs"
"Library/PackageCache/com.unity.render-pipelines.universal@14.0.8/Runtime/RendererFeatures/ScreenSpaceShadows.cs"
"Library/PackageCache/com.unity.render-pipelines.universal@14.0.8/Runtime/RenderingLayerUtils.cs"
"Library/PackageCache/com.unity.render-pipelines.universal@14.0.8/Runtime/RenderingUtils.cs"
"Library/PackageCache/com.unity.render-pipelines.universal@14.0.8/Runtime/RenderTargetBufferSystem.cs"
"Library/PackageCache/com.unity.render-pipelines.universal@14.0.8/Runtime/RenderTargetHandle.cs"
"Library/PackageCache/com.unity.render-pipelines.universal@14.0.8/Runtime/SampleCount.cs"
"Library/PackageCache/com.unity.render-pipelines.universal@14.0.8/Runtime/SceneViewDrawMode.cs"
"Library/PackageCache/com.unity.render-pipelines.universal@14.0.8/Runtime/ScriptableRenderer.cs"
"Library/PackageCache/com.unity.render-pipelines.universal@14.0.8/Runtime/ScriptableRendererData.cs"
"Library/PackageCache/com.unity.render-pipelines.universal@14.0.8/Runtime/ScriptableRendererFeature.cs"
"Library/PackageCache/com.unity.render-pipelines.universal@14.0.8/Runtime/ShaderData.cs"
"Library/PackageCache/com.unity.render-pipelines.universal@14.0.8/Runtime/ShaderUtils.cs"
"Library/PackageCache/com.unity.render-pipelines.universal@14.0.8/Runtime/ShadowUtils.cs"
"Library/PackageCache/com.unity.render-pipelines.universal@14.0.8/Runtime/SpaceFillingCurves.cs"
"Library/PackageCache/com.unity.render-pipelines.universal@14.0.8/Runtime/StencilUsage.cs"
"Library/PackageCache/com.unity.render-pipelines.universal@14.0.8/Runtime/TemporalAA.cs"
"Library/PackageCache/com.unity.render-pipelines.universal@14.0.8/Runtime/Tiling/InclusiveRange.cs"
"Library/PackageCache/com.unity.render-pipelines.universal@14.0.8/Runtime/Tiling/LightMinMaxZJob.cs"
"Library/PackageCache/com.unity.render-pipelines.universal@14.0.8/Runtime/Tiling/ReflectionProbeMinMaxZJob.cs"
"Library/PackageCache/com.unity.render-pipelines.universal@14.0.8/Runtime/Tiling/TileRangeExpansionJob.cs"
"Library/PackageCache/com.unity.render-pipelines.universal@14.0.8/Runtime/Tiling/TileSize.cs"
"Library/PackageCache/com.unity.render-pipelines.universal@14.0.8/Runtime/Tiling/TilingJob.cs"
"Library/PackageCache/com.unity.render-pipelines.universal@14.0.8/Runtime/Tiling/ZBinningJob.cs"
"Library/PackageCache/com.unity.render-pipelines.universal@14.0.8/Runtime/UniversalAdditionalCameraData.cs"
"Library/PackageCache/com.unity.render-pipelines.universal@14.0.8/Runtime/UniversalAdditionalLightData.cs"
"Library/PackageCache/com.unity.render-pipelines.universal@14.0.8/Runtime/UniversalRenderer.cs"
"Library/PackageCache/com.unity.render-pipelines.universal@14.0.8/Runtime/UniversalRendererData.cs"
"Library/PackageCache/com.unity.render-pipelines.universal@14.0.8/Runtime/UniversalRendererRenderGraph.cs"
"Library/PackageCache/com.unity.render-pipelines.universal@14.0.8/Runtime/UniversalRenderPipeline.cs"
"Library/PackageCache/com.unity.render-pipelines.universal@14.0.8/Runtime/UniversalRenderPipelineCore.cs"
"Library/PackageCache/com.unity.render-pipelines.universal@14.0.8/Runtime/UniversalRenderPipelineGlobalSettings.cs"
"Library/PackageCache/com.unity.render-pipelines.universal@14.0.8/Runtime/UniversalRenderPipelineGlobalSettings.ShaderVariantSettings.cs"
"Library/PackageCache/com.unity.render-pipelines.universal@14.0.8/Runtime/UniversalRenderPipelineRenderGraph.cs"
"Library/PackageCache/com.unity.render-pipelines.universal@14.0.8/Runtime/XR/XRPassUniversal.cs"
"Library/PackageCache/com.unity.render-pipelines.universal@14.0.8/Runtime/XR/XRSystemUniversal.cs"
-langversion:9.0
/unsafe+
/deterministic
/optimize+
/debug:portable
/nologo
/RuntimeMetadataVersion:v4.0.30319

/nowarn:0169
/nowarn:0649
/nowarn:0282
/nowarn:1701
/nowarn:1702
/utf8output
/preferreduilang:en-US

-warn:0

/additionalfile:"Library/Bee/artifacts/1300b0aE.dag/Unity.RenderPipelines.Universal.Runtime.UnityAdditionalFile.txt"