Library/Bee/artifacts/mvdfrm/Unity.Burst.ref.dll_3835BB91EC2C0D62.mvfrm
Library/Bee/artifacts/mvdfrm/Unity.RenderPipelines.Core.Runtime.ref.dll_CA4A63933BEF3AB0.mvfrm
Library/Bee/artifacts/mvdfrm/UnityEditor.TestRunner.ref.dll_A805A84D9B0C22D9.mvfrm
Library/Bee/artifacts/mvdfrm/UnityEditor.UI.ref.dll_0174E068A5FA251B.mvfrm
Library/Bee/artifacts/mvdfrm/UnityEngine.TestRunner.ref.dll_7423F2FBC6CF80C4.mvfrm
Library/Bee/artifacts/mvdfrm/UnityEngine.UI.ref.dll_BDDAB6C3AC1C4D86.mvfrm
Library/Bee/artifacts/mvdfrm/Unity.Android.Gradle.dll_AE9163E3F4A823A4.mvfrm
Library/Bee/artifacts/mvdfrm/Unity.Android.GradleProject.dll_D9D958545118F251.mvfrm
Library/Bee/artifacts/mvdfrm/Unity.Android.Types.dll_143F1AB8A32550D8.mvfrm
Library/Bee/artifacts/mvdfrm/UnityEditor.Android.Extensions.dll_9B21C2C4305A7E64.mvfrm
Library/Bee/artifacts/mvdfrm/UnityEditor.iOS.Extensions.Common.dll_6E74BC6FBD7E08C1.mvfrm
Library/Bee/artifacts/mvdfrm/UnityEditor.iOS.Extensions.dll_E2BC64C230FD29D4.mvfrm
Library/Bee/artifacts/mvdfrm/UnityEditor.iOS.Extensions.Xcode.dll_68DE4DACAF4BB21B.mvfrm
Library/Bee/artifacts/mvdfrm/UnityEditor.Graphs.dll_392BCB0EB9221D0E.mvfrm
Library/Bee/artifacts/mvdfrm/UnityEditor.CoreModule.dll_CD7981BCDF396EDC.mvfrm
Library/Bee/artifacts/mvdfrm/UnityEditor.DeviceSimulatorModule.dll_C3F7DB2B6C3499A5.mvfrm
Library/Bee/artifacts/mvdfrm/UnityEditor.DiagnosticsModule.dll_4C6A859B9C825AB3.mvfrm
Library/Bee/artifacts/mvdfrm/UnityEditor.dll_1D8D516FBD1183F9.mvfrm
Library/Bee/artifacts/mvdfrm/UnityEditor.EditorToolbarModule.dll_68FA2C84FC3084D5.mvfrm
Library/Bee/artifacts/mvdfrm/UnityEditor.GraphViewModule.dll_E1F9CC18490EA62A.mvfrm
Library/Bee/artifacts/mvdfrm/UnityEditor.PresetsUIModule.dll_9D6004FA4B66FE2F.mvfrm
Library/Bee/artifacts/mvdfrm/UnityEditor.QuickSearchModule.dll_D77A06A8F559570C.mvfrm
Library/Bee/artifacts/mvdfrm/UnityEditor.SceneTemplateModule.dll_8C999D42FB1D2F0D.mvfrm
Library/Bee/artifacts/mvdfrm/UnityEditor.SceneViewModule.dll_20A9AF203E317338.mvfrm
Library/Bee/artifacts/mvdfrm/UnityEditor.TextCoreFontEngineModule.dll_C3E6AECFAC2AD8DA.mvfrm
Library/Bee/artifacts/mvdfrm/UnityEditor.TextCoreTextEngineModule.dll_0BCEE5413BAE91F8.mvfrm
Library/Bee/artifacts/mvdfrm/UnityEditor.UIBuilderModule.dll_36827934BBC71F5E.mvfrm
Library/Bee/artifacts/mvdfrm/UnityEditor.UIElementsModule.dll_58AA6FDD6BAC2898.mvfrm
Library/Bee/artifacts/mvdfrm/UnityEditor.UIElementsSamplesModule.dll_995C7D1FAFE98A55.mvfrm
Library/Bee/artifacts/mvdfrm/UnityEditor.UnityConnectModule.dll_0333DC325DB98B92.mvfrm
Library/Bee/artifacts/mvdfrm/UnityEngine.AccessibilityModule.dll_BF3F08D9FB9356AA.mvfrm
Library/Bee/artifacts/mvdfrm/UnityEngine.AIModule.dll_0F429B87321FF9B0.mvfrm
Library/Bee/artifacts/mvdfrm/UnityEngine.AndroidJNIModule.dll_D6F358B0B4CB976E.mvfrm
Library/Bee/artifacts/mvdfrm/UnityEngine.AnimationModule.dll_B07F4841236B7AD0.mvfrm
Library/Bee/artifacts/mvdfrm/UnityEngine.ARModule.dll_C8B5608A8F3D5879.mvfrm
Library/Bee/artifacts/mvdfrm/UnityEngine.AssetBundleModule.dll_1B63399A57C00BFE.mvfrm
Library/Bee/artifacts/mvdfrm/UnityEngine.AudioModule.dll_A694B0C81B91A7C2.mvfrm
Library/Bee/artifacts/mvdfrm/UnityEngine.ClothModule.dll_0D7D0DC2F5AE86A6.mvfrm
Library/Bee/artifacts/mvdfrm/UnityEngine.ClusterInputModule.dll_82D051480F415E58.mvfrm
Library/Bee/artifacts/mvdfrm/UnityEngine.ClusterRendererModule.dll_C9A49D9CDBEFA729.mvfrm
Library/Bee/artifacts/mvdfrm/UnityEngine.ContentLoadModule.dll_B47992DB2642B3EB.mvfrm
Library/Bee/artifacts/mvdfrm/UnityEngine.CoreModule.dll_F09A550F873EDA07.mvfrm
Library/Bee/artifacts/mvdfrm/UnityEngine.CrashReportingModule.dll_3523294CA33477FF.mvfrm
Library/Bee/artifacts/mvdfrm/UnityEngine.DirectorModule.dll_A55F40B32F4DF1E4.mvfrm
Library/Bee/artifacts/mvdfrm/UnityEngine.dll_503198481B8510DE.mvfrm
Library/Bee/artifacts/mvdfrm/UnityEngine.DSPGraphModule.dll_AAB0A21CA1AEC305.mvfrm
Library/Bee/artifacts/mvdfrm/UnityEngine.GameCenterModule.dll_0140A2CB7B0C885F.mvfrm
Library/Bee/artifacts/mvdfrm/UnityEngine.GIModule.dll_A77EE494CDCEE1CA.mvfrm
Library/Bee/artifacts/mvdfrm/UnityEngine.GridModule.dll_CE0B70FD9F936FFE.mvfrm
Library/Bee/artifacts/mvdfrm/UnityEngine.HotReloadModule.dll_31C80646FE9E9652.mvfrm
Library/Bee/artifacts/mvdfrm/UnityEngine.ImageConversionModule.dll_35969B4D5E145F1D.mvfrm
Library/Bee/artifacts/mvdfrm/UnityEngine.IMGUIModule.dll_DEF4502EE1C33BA3.mvfrm
Library/Bee/artifacts/mvdfrm/UnityEngine.InputLegacyModule.dll_ACA854B8EFB1C1EF.mvfrm
Library/Bee/artifacts/mvdfrm/UnityEngine.InputModule.dll_0D0A787891C9CC66.mvfrm
Library/Bee/artifacts/mvdfrm/UnityEngine.JSONSerializeModule.dll_1F569215FACEB734.mvfrm
Library/Bee/artifacts/mvdfrm/UnityEngine.LocalizationModule.dll_C11D1B9AA6BD5151.mvfrm
Library/Bee/artifacts/mvdfrm/UnityEngine.NVIDIAModule.dll_E9081360E19FA553.mvfrm
Library/Bee/artifacts/mvdfrm/UnityEngine.ParticleSystemModule.dll_883572991146038D.mvfrm
Library/Bee/artifacts/mvdfrm/UnityEngine.PerformanceReportingModule.dll_290D5F3B681435C6.mvfrm
Library/Bee/artifacts/mvdfrm/UnityEngine.Physics2DModule.dll_FD253831C4687265.mvfrm
Library/Bee/artifacts/mvdfrm/UnityEngine.PhysicsModule.dll_02DFA506B972BED3.mvfrm
Library/Bee/artifacts/mvdfrm/UnityEngine.ProfilerModule.dll_D7A579E9C8A778F1.mvfrm
Library/Bee/artifacts/mvdfrm/UnityEngine.PropertiesModule.dll_2E7BE209EDF7EC9B.mvfrm
Library/Bee/artifacts/mvdfrm/UnityEngine.RuntimeInitializeOnLoadManagerInitializerModule.dll_6745B15961462D2E.mvfrm
Library/Bee/artifacts/mvdfrm/UnityEngine.ScreenCaptureModule.dll_393E3F9B0F3AE396.mvfrm
Library/Bee/artifacts/mvdfrm/UnityEngine.SharedInternalsModule.dll_B9A7DA22D5425A6D.mvfrm
Library/Bee/artifacts/mvdfrm/UnityEngine.SpriteMaskModule.dll_EA6D155B9C7C1DD9.mvfrm
Library/Bee/artifacts/mvdfrm/UnityEngine.SpriteShapeModule.dll_34C466F50D624408.mvfrm
Library/Bee/artifacts/mvdfrm/UnityEngine.StreamingModule.dll_6514359172F3320E.mvfrm
Library/Bee/artifacts/mvdfrm/UnityEngine.SubstanceModule.dll_41BF49DABE46301C.mvfrm
Library/Bee/artifacts/mvdfrm/UnityEngine.SubsystemsModule.dll_551A7BBD6AC405EC.mvfrm
Library/Bee/artifacts/mvdfrm/UnityEngine.TerrainModule.dll_1D2620758F3107C1.mvfrm
Library/Bee/artifacts/mvdfrm/UnityEngine.TerrainPhysicsModule.dll_88B01B6C2A88FE1A.mvfrm
Library/Bee/artifacts/mvdfrm/UnityEngine.TextCoreFontEngineModule.dll_42462A22BF2897A5.mvfrm
Library/Bee/artifacts/mvdfrm/UnityEngine.TextCoreTextEngineModule.dll_8A2E60944EAC50C3.mvfrm
Library/Bee/artifacts/mvdfrm/UnityEngine.TextRenderingModule.dll_627DB1A5C672638B.mvfrm
Library/Bee/artifacts/mvdfrm/UnityEngine.TilemapModule.dll_BC2287F6A6EDE8CA.mvfrm
Library/Bee/artifacts/mvdfrm/UnityEngine.TLSModule.dll_C075A5588E30A2E7.mvfrm
Library/Bee/artifacts/mvdfrm/UnityEngine.UIElementsModule.dll_5958DD256DF041E3.mvfrm
Library/Bee/artifacts/mvdfrm/UnityEngine.UIModule.dll_0AB639B48E66FF5C.mvfrm
Library/Bee/artifacts/mvdfrm/UnityEngine.UmbraModule.dll_21695CE0A8B85335.mvfrm
Library/Bee/artifacts/mvdfrm/UnityEngine.UnityAnalyticsCommonModule.dll_C44C1C7F81FCD424.mvfrm
Library/Bee/artifacts/mvdfrm/UnityEngine.UnityAnalyticsModule.dll_A7D4E362BD6D5589.mvfrm
Library/Bee/artifacts/mvdfrm/UnityEngine.UnityConnectModule.dll_F093604158418C3D.mvfrm
Library/Bee/artifacts/mvdfrm/UnityEngine.UnityCurlModule.dll_E39BE972937F6CBD.mvfrm
Library/Bee/artifacts/mvdfrm/UnityEngine.UnityTestProtocolModule.dll_551F331209E4DFAB.mvfrm
Library/Bee/artifacts/mvdfrm/UnityEngine.UnityWebRequestAssetBundleModule.dll_128C198D85B8F71A.mvfrm
Library/Bee/artifacts/mvdfrm/UnityEngine.UnityWebRequestAudioModule.dll_A109B319EE7F005E.mvfrm
Library/Bee/artifacts/mvdfrm/UnityEngine.UnityWebRequestModule.dll_4735A2F76908F99C.mvfrm
Library/Bee/artifacts/mvdfrm/UnityEngine.UnityWebRequestTextureModule.dll_FB9A437BD71C6DF3.mvfrm
Library/Bee/artifacts/mvdfrm/UnityEngine.UnityWebRequestWWWModule.dll_54F0A5F03E6C0D2F.mvfrm
Library/Bee/artifacts/mvdfrm/UnityEngine.VehiclesModule.dll_1D223A32A977C17F.mvfrm
Library/Bee/artifacts/mvdfrm/UnityEngine.VFXModule.dll_41543DC7649E0C54.mvfrm
Library/Bee/artifacts/mvdfrm/UnityEngine.VideoModule.dll_CB9E3532DE23C367.mvfrm
Library/Bee/artifacts/mvdfrm/UnityEngine.VirtualTexturingModule.dll_E9EF381C604B51E5.mvfrm
Library/Bee/artifacts/mvdfrm/UnityEngine.VRModule.dll_5D88603A302184D4.mvfrm
Library/Bee/artifacts/mvdfrm/UnityEngine.WindModule.dll_66E9303818755870.mvfrm
Library/Bee/artifacts/mvdfrm/UnityEngine.XRModule.dll_9047233EB95BD232.mvfrm
Library/Bee/artifacts/mvdfrm/UnityEditor.OSXStandalone.Extensions.dll_789566D83E02802F.mvfrm
Library/Bee/artifacts/mvdfrm/Unity.Plastic.Antlr3.Runtime.dll_DBC5D081C4D6AF26.mvfrm
Library/Bee/artifacts/mvdfrm/Unity.Plastic.Newtonsoft.Json.dll_B06B77423C8110AF.mvfrm
Library/Bee/artifacts/mvdfrm/Unity.VisualScripting.IonicZip.dll_3753AE2E22DD17B6.mvfrm
Library/Bee/artifacts/mvdfrm/Unity.VisualScripting.YamlDotNet.dll_B9EB2E0105A28BA6.mvfrm
Library/Bee/artifacts/mvdfrm/Unity.VisualScripting.TextureAssets.dll_51095754C66FE99E.mvfrm
Library/Bee/artifacts/mvdfrm/Unity.VisualScripting.Antlr3.Runtime.dll_6B5854E2366B9BC5.mvfrm