-a="C:\Users\bruco\AppAR\Library\PlayerScriptAssemblies\Assembly-CSharp.dll"
-a="C:\Users\bruco\AppAR\Library\PlayerScriptAssemblies\Unity.RenderPipelines.Universal.Shaders.dll"
-a="C:\Users\bruco\AppAR\Library\PlayerScriptAssemblies\Unity.RenderPipelines.Universal.Runtime.dll"
-a="C:\Users\bruco\AppAR\Library\PlayerScriptAssemblies\Unity.VisualEffectGraph.Runtime.dll"
-a="C:\Users\bruco\AppAR\Library\PlayerScriptAssemblies\UnityEngine.TestRunner.dll"
-a="C:\Users\bruco\AppAR\Library\PlayerScriptAssemblies\Unity.Timeline.dll"
-a="C:\Users\bruco\AppAR\Library\PlayerScriptAssemblies\Unity.TextMeshPro.dll"
-a="C:\Users\bruco\AppAR\Library\PlayerScriptAssemblies\UnityEngine.Advertisements.dll"
-a="C:\Users\bruco\AppAR\Library\PlayerScriptAssemblies\Unity.VisualScripting.Flow.dll"
-a="C:\Users\bruco\AppAR\Library\PlayerScriptAssemblies\Unity.RenderPipelines.Core.ShaderLibrary.dll"
-a="C:\Users\bruco\AppAR\Library\PlayerScriptAssemblies\UnityEngine.UI.dll"
-a="C:\Users\bruco\AppAR\Library\PlayerScriptAssemblies\VFXCore.dll"
-a="C:\Users\bruco\AppAR\Library\PlayerScriptAssemblies\Unity.VisualScripting.Core.dll"
-a="C:\Users\bruco\AppAR\Library\PlayerScriptAssemblies\Unity.Mathematics.dll"
-a="C:\Users\bruco\AppAR\Library\PlayerScriptAssemblies\Unity.RenderPipelines.Core.Runtime.dll"
-a="C:\Users\bruco\AppAR\Library\PlayerScriptAssemblies\SimpleFileBrowser.Runtime.dll"
-a="C:\Users\bruco\AppAR\Library\PlayerScriptAssemblies\Unity.Burst.dll"
-a="C:\Users\bruco\AppAR\Library\PlayerScriptAssemblies\Unity.RenderPipeline.Universal.ShaderLibrary.dll"
-a="C:\Users\bruco\AppAR\Library\PlayerScriptAssemblies\SamplesScripts.dll"
-a="C:\Users\bruco\AppAR\Library\PlayerScriptAssemblies\Unity.RenderPipelines.ShaderGraph.ShaderGraphLibrary.dll"
-a="C:\Users\bruco\AppAR\Library\PlayerScriptAssemblies\CommonScripts.dll"
-a="C:\Users\bruco\AppAR\Library\PlayerScriptAssemblies\VuforiaScripts.dll"
-a="C:\Users\bruco\AppAR\Library\PlayerScriptAssemblies\Unity.VisualScripting.State.dll"
-a="C:\Users\bruco\AppAR\Library\PackageCache\com.unity.testtools.codecoverage@1.0.1\lib\ReportGenerator\ReportGeneratorMerged.dll"
-a="C:\Users\bruco\AppAR\Assets\Firebase\Plugins\Firebase.Firestore.dll"
-a="C:\Users\bruco\AppAR\Library\PackageCache\com.unity.burst@1.6.5\Unity.Burst.Unsafe.dll"
-a="C:\Users\bruco\AppAR\Library\PackageCache\com.ptc.vuforia.engine@161c1f01b781\Vuforia\Plugins\Managed\UWP\Vuforia.Unity.Wrapper.dll"
-a="C:\Users\bruco\AppAR\Library\PackageCache\com.ptc.vuforia.engine@161c1f01b781\Vuforia\Plugins\Managed\iOS\Vuforia.Unity.Wrapper.dll"
-a="C:\Users\bruco\AppAR\Assets\Firebase\Plugins\Firebase.TaskExtension.dll"
-a="C:\Users\bruco\AppAR\Library\PackageCache\com.unity.visualscripting@1.8.0\Runtime\VisualScripting.Flow\Dependencies\NCalc\Unity.VisualScripting.Antlr3.Runtime.dll"
-a="C:\Users\bruco\AppAR\Library\PackageCache\com.ptc.vuforia.engine@161c1f01b781\Vuforia\Plugins\Managed\Android\Vuforia.Unity.Wrapper.dll"
-a="C:\Users\bruco\AppAR\Library\PackageCache\com.unity.burst@1.6.5\Unity.Burst.CodeGen\Unity.Burst.Cecil.Pdb.dll"
-a="C:\Users\bruco\AppAR\Assets\Firebase\Plugins\Firebase.Storage.dll"
-a="C:\Users\bruco\AppAR\Assets\Firebase\Plugins\iOS\Firebase.App.dll"
-a="C:\Users\bruco\AppAR\Library\PackageCache\com.ptc.vuforia.engine@161c1f01b781\Vuforia\Plugins\Managed\Runtime\Vuforia.Unity.Engine.dll"
-a="C:\Users\bruco\AppAR\Library\PackageCache\com.unity.burst@1.6.5\Unity.Burst.CodeGen\Unity.Burst.Cecil.Mdb.dll"
-a="C:\Users\bruco\AppAR\Library\PackageCache\com.unity.burst@1.6.5\Unity.Burst.CodeGen\Unity.Burst.Cecil.dll"
-a="C:\Users\bruco\AppAR\Assets\Firebase\Plugins\Google.MiniJson.dll"
-a="C:\Users\bruco\AppAR\Library\PackageCache\com.unity.burst@1.6.5\Unity.Burst.CodeGen\Unity.Burst.Cecil.Rocks.dll"
-a="C:\Users\bruco\AppAR\Assets\Firebase\Plugins\Firebase.App.dll"
-a="C:\Users\bruco\AppAR\Library\PackageCache\com.ptc.vuforia.engine@161c1f01b781\Vuforia\Plugins\Managed\UWP\Vuforia.Unity.Engine.dll"
-a="C:\Users\bruco\AppAR\Library\PackageCache\com.unity.ext.nunit@1.0.6\net35\unity-custom\nunit.framework.dll"
-a="C:\Users\bruco\AppAR\Assets\Firebase\Plugins\Firebase.Database.dll"
-a="C:\Users\bruco\AppAR\Library\PackageCache\com.ptc.vuforia.engine@161c1f01b781\Vuforia\Plugins\Managed\iOS\Vuforia.Unity.Engine.dll"
-a="C:\Users\bruco\AppAR\Assets\Firebase\Plugins\iOS\Firebase.Storage.dll"
-a="C:\Users\bruco\AppAR\Library\PackageCache\com.ptc.vuforia.engine@161c1f01b781\Vuforia\Plugins\Managed\Runtime\Vuforia.Unity.Wrapper.dll"
-a="C:\Users\bruco\AppAR\Library\PackageCache\com.ptc.vuforia.engine@161c1f01b781\Vuforia\Plugins\Managed\Android\Vuforia.Unity.Engine.dll"
-a="C:\Users\bruco\AppAR\Assets\Firebase\Plugins\iOS\Firebase.Database.dll"
-a="C:\Users\bruco\AppAR\Assets\Firebase\Plugins\iOS\Firebase.Firestore.dll"
-a="C:\Users\bruco\AppAR\Assets\Firebase\Plugins\iOS\Firebase.Auth.dll"
-a="C:\Users\bruco\AppAR\Assets\Firebase\Plugins\Firebase.Platform.dll"
-a="C:\Users\bruco\AppAR\Assets\Firebase\Plugins\Firebase.Auth.dll"
-s="C:\Program Files\Unity\Hub\Editor\2021.3.4f1\Editor\Data\Managed\UnityEngine"
-s="C:\Users\bruco\AppAR\Library\PlayerScriptAssemblies"
-s="C:\Users\bruco\AppAR\Library\PackageCache\com.unity.testtools.codecoverage@1.0.1\lib\ReportGenerator"
-s="C:\Users\bruco\AppAR\Assets\Firebase\Plugins"
-s="C:\Users\bruco\AppAR\Library\PackageCache\com.unity.burst@1.6.5"
-s="C:\Users\bruco\AppAR\Library\PackageCache\com.ptc.vuforia.engine@161c1f01b781\Vuforia\Plugins\Managed\UWP"
-s="C:\Users\bruco\AppAR\Library\PackageCache\com.ptc.vuforia.engine@161c1f01b781\Vuforia\Plugins\Managed\iOS"
-s="C:\Users\bruco\AppAR\Library\PackageCache\com.unity.visualscripting@1.8.0\Runtime\VisualScripting.Flow\Dependencies\NCalc"
-s="C:\Users\bruco\AppAR\Library\PackageCache\com.ptc.vuforia.engine@161c1f01b781\Vuforia\Plugins\Managed\Android"
-s="C:\Users\bruco\AppAR\Library\PackageCache\com.unity.burst@1.6.5\Unity.Burst.CodeGen"
-s="C:\Users\bruco\AppAR\Assets\Firebase\Plugins\iOS"
-s="C:\Users\bruco\AppAR\Library\PackageCache\com.ptc.vuforia.engine@161c1f01b781\Vuforia\Plugins\Managed\Runtime"
-s="C:\Users\bruco\AppAR\Library\PackageCache\com.unity.ext.nunit@1.0.6\net35\unity-custom"
-s="C:\Program Files\Unity\Hub\Editor\2021.3.4f1\Editor\Data\Managed\UnityEngine"
-s="C:\Program Files\Unity\Hub\Editor\2021.3.4f1\Editor\Data\UnityReferenceAssemblies\unity-4.8-api"
-s="C:\Program Files\Unity\Hub\Editor\2021.3.4f1\Editor\Data\UnityReferenceAssemblies\unity-4.8-api\Facades"
-o="C:\Users\bruco\AppAR\Library\BuildPlayerData\Player"
-rn="RuntimeInitializeOnLoads.json"
-tn="TypeDb-All.json"
