Library/Bee/artifacts/mvdfrm/UnityEngine.UI.ref.dll_AFC2E85BC2EDBC0B.mvfrm
Library/Bee/artifacts/mvdfrm/UnityEngine.AccessibilityModule.dll_F03FEE59C7F3CA4E.mvfrm
Library/Bee/artifacts/mvdfrm/UnityEngine.AIModule.dll_2891E5FFF893B4CC.mvfrm
Library/Bee/artifacts/mvdfrm/UnityEngine.AndroidJNIModule.dll_8A8C0C91BB60E08A.mvfrm
Library/Bee/artifacts/mvdfrm/UnityEngine.AnimationModule.dll_93DB555725A06574.mvfrm
Library/Bee/artifacts/mvdfrm/UnityEngine.ARModule.dll_E204AB0355B11395.mvfrm
Library/Bee/artifacts/mvdfrm/UnityEngine.AssetBundleModule.dll_82D52DD90EE87322.mvfrm
Library/Bee/artifacts/mvdfrm/UnityEngine.AudioModule.dll_013D7FED73254966.mvfrm
Library/Bee/artifacts/mvdfrm/UnityEngine.ClothModule.dll_6825DCE84D42284A.mvfrm
Library/Bee/artifacts/mvdfrm/UnityEngine.ContentLoadModule.dll_1BEB8719DD6B1B0F.mvfrm
Library/Bee/artifacts/mvdfrm/UnityEngine.CoreModule.dll_775DE896749150A3.mvfrm
Library/Bee/artifacts/mvdfrm/UnityEngine.CrashReportingModule.dll_CA2880FA612D281B.mvfrm
Library/Bee/artifacts/mvdfrm/UnityEngine.DirectorModule.dll_1C50F1A9BC232F80.mvfrm
Library/Bee/artifacts/mvdfrm/UnityEngine.dll_117265A066D25782.mvfrm
Library/Bee/artifacts/mvdfrm/UnityEngine.DSPGraphModule.dll_21A253132E8400A1.mvfrm
Library/Bee/artifacts/mvdfrm/UnityEngine.GameCenterModule.dll_B4D956AC81A1D17B.mvfrm
Library/Bee/artifacts/mvdfrm/UnityEngine.GIModule.dll_C0CE2F0D94429CE6.mvfrm
Library/Bee/artifacts/mvdfrm/UnityEngine.GridModule.dll_54CF04848CE5E69A.mvfrm
Library/Bee/artifacts/mvdfrm/UnityEngine.HotReloadModule.dll_1524135D00D380F6.mvfrm
Library/Bee/artifacts/mvdfrm/UnityEngine.ImageConversionModule.dll_D4AF843765236F41.mvfrm
Library/Bee/artifacts/mvdfrm/UnityEngine.IMGUIModule.dll_399D1F543956DD47.mvfrm
Library/Bee/artifacts/mvdfrm/UnityEngine.InputLegacyModule.dll_141A48F7A6DA2913.mvfrm
Library/Bee/artifacts/mvdfrm/UnityEngine.InputModule.dll_67B3479DE95D6E0A.mvfrm
Library/Bee/artifacts/mvdfrm/UnityEngine.JSONSerializeModule.dll_50577795C72F2AD8.mvfrm
Library/Bee/artifacts/mvdfrm/UnityEngine.LocalizationModule.dll_6C2CC25E740F15ED.mvfrm
Library/Bee/artifacts/mvdfrm/UnityEngine.ParticleSystemModule.dll_1D3ACA46CF3EB3A9.mvfrm
Library/Bee/artifacts/mvdfrm/UnityEngine.PerformanceReportingModule.dll_914C55A3770C4862.mvfrm
Library/Bee/artifacts/mvdfrm/UnityEngine.Physics2DModule.dll_E0814547C69D5D09.mvfrm
Library/Bee/artifacts/mvdfrm/UnityEngine.PhysicsModule.dll_037ABC875406BCF7.mvfrm
Library/Bee/artifacts/mvdfrm/UnityEngine.ProfilerModule.dll_4E972AE0557CB68D.mvfrm
Library/Bee/artifacts/mvdfrm/UnityEngine.PropertiesModule.dll_E21495EAF48D35B7.mvfrm
Library/Bee/artifacts/mvdfrm/UnityEngine.RuntimeInitializeOnLoadManagerInitializerModule.dll_6B2AC918CF365FD2.mvfrm
Library/Bee/artifacts/mvdfrm/UnityEngine.ScreenCaptureModule.dll_6A3F251ADB9B573A.mvfrm
Library/Bee/artifacts/mvdfrm/UnityEngine.SharedInternalsModule.dll_58C0C30CDC516A91.mvfrm
Library/Bee/artifacts/mvdfrm/UnityEngine.SpriteMaskModule.dll_9E05C93CA31166F5.mvfrm
Library/Bee/artifacts/mvdfrm/UnityEngine.SpriteShapeModule.dll_9C365B33C48AAB2C.mvfrm
Library/Bee/artifacts/mvdfrm/UnityEngine.StreamingModule.dll_487042A775281CB2.mvfrm
Library/Bee/artifacts/mvdfrm/UnityEngine.SubstanceModule.dll_251B56F0C07B1AC0.mvfrm
Library/Bee/artifacts/mvdfrm/UnityEngine.SubsystemsModule.dll_08B32F9E71594F08.mvfrm
Library/Bee/artifacts/mvdfrm/UnityEngine.TerrainModule.dll_1DC137F629C505E5.mvfrm
Library/Bee/artifacts/mvdfrm/UnityEngine.TerrainPhysicsModule.dll_1DB57319E881AE36.mvfrm
Library/Bee/artifacts/mvdfrm/UnityEngine.TextCoreFontEngineModule.dll_A8A8756B38A66EC1.mvfrm
Library/Bee/artifacts/mvdfrm/UnityEngine.TextCoreTextEngineModule.dll_F090ABDCC82A27DF.mvfrm
Library/Bee/artifacts/mvdfrm/UnityEngine.TextRenderingModule.dll_937E972592D2D72F.mvfrm
Library/Bee/artifacts/mvdfrm/UnityEngine.TilemapModule.dll_BCBD9F774181E6EE.mvfrm
Library/Bee/artifacts/mvdfrm/UnityEngine.TLSModule.dll_D44517F8C0F2780B.mvfrm
Library/Bee/artifacts/mvdfrm/UnityEngine.UIElementsModule.dll_0CF1910674858AFF.mvfrm
Library/Bee/artifacts/mvdfrm/UnityEngine.UIModule.dll_2405842D54DABA78.mvfrm
Library/Bee/artifacts/mvdfrm/UnityEngine.UmbraModule.dll_7C122C06004BF4D9.mvfrm
Library/Bee/artifacts/mvdfrm/UnityEngine.UnityAnalyticsCommonModule.dll_2C8B12E790F4E6C0.mvfrm
Library/Bee/artifacts/mvdfrm/UnityEngine.UnityAnalyticsModule.dll_3CDA3B107B6605A5.mvfrm
Library/Bee/artifacts/mvdfrm/UnityEngine.UnityConnectModule.dll_9BA30705259350D9.mvfrm
Library/Bee/artifacts/mvdfrm/UnityEngine.UnityCurlModule.dll_C6F7F68895B45761.mvfrm
Library/Bee/artifacts/mvdfrm/UnityEngine.UnityTestProtocolModule.dll_D035DDD4B08B1C4F.mvfrm
Library/Bee/artifacts/mvdfrm/UnityEngine.UnityWebRequestAssetBundleModule.dll_A88BC76708665C36.mvfrm
Library/Bee/artifacts/mvdfrm/UnityEngine.UnityWebRequestAudioModule.dll_0948A981FD7712FA.mvfrm
Library/Bee/artifacts/mvdfrm/UnityEngine.UnityWebRequestModule.dll_E64E8BE1701809C0.mvfrm
Library/Bee/artifacts/mvdfrm/UnityEngine.UnityWebRequestTextureModule.dll_33312DEAAAB12C0F.mvfrm
Library/Bee/artifacts/mvdfrm/UnityEngine.UnityWebRequestWWWModule.dll_BB52F138B7E9E44B.mvfrm
Library/Bee/artifacts/mvdfrm/UnityEngine.VehiclesModule.dll_9413EB29364CFF1B.mvfrm
Library/Bee/artifacts/mvdfrm/UnityEngine.VFXModule.dll_5523B067975FE178.mvfrm
Library/Bee/artifacts/mvdfrm/UnityEngine.VideoModule.dll_2647045835B7650B.mvfrm
Library/Bee/artifacts/mvdfrm/UnityEngine.VRModule.dll_76D7AAB2F6953FF0.mvfrm
Library/Bee/artifacts/mvdfrm/UnityEngine.WindModule.dll_EDACC3BF05C7CF0C.mvfrm
Library/Bee/artifacts/mvdfrm/UnityEngine.XRModule.dll_A9966DB77FCF8D4E.mvfrm
Library/Bee/artifacts/mvdfrm/Unity.VisualScripting.Antlr3.Runtime.dll_6B5854E2366B9BC5.mvfrm