%YAML 1.1
%TAG !u! tag:unity3d.com,2011:
--- !u!78 &1
TagManager:
  serializedVersion: 2
  tags:
  - planeScanImg
  - SittingSet
  - ExitButton
  - BackButton
  - CubeTag
  - CapsuleTag
  - SphereTag
  - PanelsTag
  - RotationBtn
  - BasicObjects
  - content
  - CircleLoadAnimTag
  - VerticalScrollViewTag
  - RotationSliderBar
  - Text
  - deneme
  - asset
  - groundPlane
  - groundPlaneObject
  - objectFinder
  - categoryFinder
  - PlacedObjects
  layers:
  - Default
  - TransparentFX
  - Ignore Raycast
  - 
  - Water
  - UI
  - 
  - 
  - 
  - 
  - 
  - 
  - 
  - 
  - 
  - 
  - 
  - 
  - 
  - 
  - 
  - 
  - 
  - 
  - 
  - 
  - 
  - 
  - 
  - 
  - 
  - 
  m_SortingLayers:
  - name: Default
    uniqueID: 0
    locked: 0
